G04 start of page 4 for group 2 idx 1 *
G04 Title: (unknown), ground *
G04 Creator: pcb 20140316 *
G04 CreationDate: Пн 24 сен 2018 19:36:44 UTC *
G04 For: alex *
G04 Format: Gerber/RS-274X *
G04 PCB-Dimensions (mil): 2505.69 2100.00 *
G04 PCB-Coordinate-Origin: lower left *
%MOIN*%
%FSLAX25Y25*%
%LNGROUP2*%
%ADD68C,0.0380*%
%ADD67C,0.0100*%
%ADD66C,0.0150*%
%ADD65C,0.0300*%
%ADD64C,0.1250*%
%ADD63C,0.0200*%
%ADD62C,0.0264*%
%ADD61C,0.0600*%
%ADD60C,0.0500*%
%ADD59C,0.1290*%
%ADD58C,0.0760*%
%ADD57C,0.0700*%
%ADD56C,0.0001*%
G54D56*G36*
X224286Y210000D02*X230000D01*
Y0D01*
X224286D01*
Y25177D01*
X224576Y25424D01*
X225235Y26197D01*
X225766Y27062D01*
X226154Y28000D01*
X226391Y28988D01*
X226451Y30000D01*
X226391Y31012D01*
X226154Y32000D01*
X225766Y32938D01*
X225235Y33803D01*
X224576Y34576D01*
X224286Y34823D01*
Y97524D01*
X224332Y97550D01*
X224400Y97603D01*
X224459Y97667D01*
X224506Y97739D01*
X224704Y98121D01*
X224861Y98521D01*
X224980Y98934D01*
X225060Y99357D01*
X225100Y99785D01*
Y100215D01*
X225060Y100643D01*
X224980Y101066D01*
X224861Y101479D01*
X224704Y101879D01*
X224510Y102263D01*
X224462Y102336D01*
X224403Y102400D01*
X224334Y102453D01*
X224286Y102480D01*
Y107374D01*
X224611Y107905D01*
X224888Y108574D01*
X225057Y109278D01*
X225100Y110000D01*
X225057Y110722D01*
X224888Y111426D01*
X224611Y112095D01*
X224286Y112626D01*
Y117374D01*
X224611Y117905D01*
X224888Y118574D01*
X225057Y119278D01*
X225100Y120000D01*
X225057Y120722D01*
X224888Y121426D01*
X224611Y122095D01*
X224286Y122626D01*
Y135177D01*
X224576Y135424D01*
X225235Y136197D01*
X225766Y137062D01*
X226154Y138000D01*
X226391Y138988D01*
X226451Y140000D01*
X226391Y141012D01*
X226154Y142000D01*
X225766Y142938D01*
X225235Y143803D01*
X224576Y144576D01*
X224286Y144823D01*
Y210000D01*
G37*
G36*
Y122626D02*X224233Y122712D01*
X223763Y123263D01*
X223212Y123733D01*
X222595Y124111D01*
X221926Y124388D01*
X221222Y124557D01*
X220500Y124614D01*
X219990Y124574D01*
Y133530D01*
X220000Y133529D01*
X221012Y133609D01*
X222000Y133846D01*
X222938Y134234D01*
X223803Y134765D01*
X224286Y135177D01*
Y122626D01*
G37*
G36*
Y112626D02*X224233Y112712D01*
X223763Y113263D01*
X223212Y113733D01*
X222595Y114111D01*
X221926Y114388D01*
X221222Y114557D01*
X220500Y114614D01*
X219990Y114574D01*
Y115426D01*
X220500Y115386D01*
X221222Y115443D01*
X221926Y115612D01*
X222595Y115889D01*
X223212Y116267D01*
X223763Y116737D01*
X224233Y117288D01*
X224286Y117374D01*
Y112626D01*
G37*
G36*
Y34823D02*X223803Y35235D01*
X222938Y35766D01*
X222000Y36154D01*
X221012Y36391D01*
X220000Y36471D01*
X219990Y36470D01*
Y95428D01*
X220285Y95400D01*
X220715D01*
X221143Y95440D01*
X221566Y95520D01*
X221979Y95639D01*
X222379Y95796D01*
X222763Y95990D01*
X222836Y96038D01*
X222900Y96097D01*
X222953Y96166D01*
X222996Y96242D01*
X223026Y96324D01*
X223042Y96409D01*
X223046Y96497D01*
X223035Y96583D01*
X223011Y96667D01*
X222974Y96746D01*
X222926Y96818D01*
X222866Y96882D01*
X222798Y96936D01*
X222721Y96978D01*
X222640Y97008D01*
X222554Y97025D01*
X222467Y97028D01*
X222380Y97017D01*
X222297Y96993D01*
X222218Y96955D01*
X221928Y96805D01*
X221624Y96685D01*
X221310Y96595D01*
X220989Y96534D01*
X220663Y96504D01*
X220337D01*
X220011Y96534D01*
X219990Y96538D01*
Y103462D01*
X220011Y103466D01*
X220337Y103496D01*
X220663D01*
X220989Y103466D01*
X221310Y103405D01*
X221624Y103315D01*
X221928Y103195D01*
X222220Y103048D01*
X222298Y103010D01*
X222381Y102986D01*
X222467Y102976D01*
X222554Y102979D01*
X222639Y102996D01*
X222720Y103025D01*
X222796Y103067D01*
X222864Y103121D01*
X222923Y103184D01*
X222971Y103256D01*
X223007Y103334D01*
X223031Y103418D01*
X223042Y103504D01*
X223039Y103590D01*
X223022Y103675D01*
X222992Y103756D01*
X222950Y103832D01*
X222897Y103900D01*
X222833Y103959D01*
X222761Y104006D01*
X222379Y104204D01*
X221979Y104361D01*
X221566Y104480D01*
X221143Y104560D01*
X220715Y104600D01*
X220285D01*
X219990Y104572D01*
Y105426D01*
X220500Y105386D01*
X221222Y105443D01*
X221926Y105612D01*
X222595Y105889D01*
X223212Y106267D01*
X223763Y106737D01*
X224233Y107288D01*
X224286Y107374D01*
Y102480D01*
X224258Y102496D01*
X224176Y102526D01*
X224091Y102542D01*
X224003Y102546D01*
X223917Y102535D01*
X223833Y102511D01*
X223754Y102474D01*
X223682Y102426D01*
X223618Y102366D01*
X223564Y102298D01*
X223522Y102221D01*
X223492Y102140D01*
X223475Y102054D01*
X223472Y101967D01*
X223483Y101880D01*
X223507Y101797D01*
X223545Y101718D01*
X223695Y101428D01*
X223815Y101124D01*
X223905Y100810D01*
X223966Y100489D01*
X223996Y100163D01*
Y99837D01*
X223966Y99511D01*
X223905Y99190D01*
X223815Y98876D01*
X223695Y98572D01*
X223548Y98280D01*
X223510Y98202D01*
X223486Y98119D01*
X223476Y98033D01*
X223479Y97946D01*
X223496Y97861D01*
X223525Y97780D01*
X223567Y97704D01*
X223621Y97636D01*
X223684Y97577D01*
X223756Y97529D01*
X223834Y97493D01*
X223918Y97469D01*
X224004Y97458D01*
X224090Y97461D01*
X224175Y97478D01*
X224256Y97508D01*
X224286Y97524D01*
Y34823D01*
G37*
G36*
Y0D02*X219990D01*
Y23530D01*
X220000Y23529D01*
X221012Y23609D01*
X222000Y23846D01*
X222938Y24234D01*
X223803Y24765D01*
X224286Y25177D01*
Y0D01*
G37*
G36*
X219990Y210000D02*X224286D01*
Y144823D01*
X223803Y145235D01*
X222938Y145766D01*
X222000Y146154D01*
X221012Y146391D01*
X220000Y146471D01*
X219990Y146470D01*
Y210000D01*
G37*
G36*
X216714Y24448D02*X217062Y24234D01*
X218000Y23846D01*
X218988Y23609D01*
X219990Y23530D01*
Y0D01*
X216714D01*
Y24448D01*
G37*
G36*
Y107374D02*X216767Y107288D01*
X217237Y106737D01*
X217788Y106267D01*
X218405Y105889D01*
X219074Y105612D01*
X219778Y105443D01*
X219990Y105426D01*
Y104572D01*
X219857Y104560D01*
X219434Y104480D01*
X219021Y104361D01*
X218621Y104204D01*
X218237Y104010D01*
X218164Y103962D01*
X218100Y103903D01*
X218047Y103834D01*
X218004Y103758D01*
X217974Y103676D01*
X217958Y103591D01*
X217954Y103503D01*
X217965Y103417D01*
X217989Y103333D01*
X218026Y103254D01*
X218074Y103182D01*
X218134Y103118D01*
X218202Y103064D01*
X218279Y103022D01*
X218360Y102992D01*
X218446Y102975D01*
X218533Y102972D01*
X218620Y102983D01*
X218703Y103007D01*
X218782Y103045D01*
X219072Y103195D01*
X219376Y103315D01*
X219690Y103405D01*
X219990Y103462D01*
Y96538D01*
X219690Y96595D01*
X219376Y96685D01*
X219072Y96805D01*
X218780Y96952D01*
X218702Y96990D01*
X218619Y97014D01*
X218533Y97024D01*
X218446Y97021D01*
X218361Y97004D01*
X218280Y96975D01*
X218204Y96933D01*
X218136Y96879D01*
X218077Y96816D01*
X218029Y96744D01*
X217993Y96666D01*
X217969Y96582D01*
X217958Y96496D01*
X217961Y96410D01*
X217978Y96325D01*
X218008Y96244D01*
X218050Y96168D01*
X218103Y96100D01*
X218167Y96041D01*
X218239Y95994D01*
X218621Y95796D01*
X219021Y95639D01*
X219434Y95520D01*
X219857Y95440D01*
X219990Y95428D01*
Y36470D01*
X218988Y36391D01*
X218000Y36154D01*
X217062Y35766D01*
X216714Y35552D01*
Y97520D01*
X216742Y97504D01*
X216824Y97474D01*
X216909Y97458D01*
X216997Y97454D01*
X217083Y97465D01*
X217167Y97489D01*
X217246Y97526D01*
X217318Y97574D01*
X217382Y97634D01*
X217436Y97702D01*
X217478Y97779D01*
X217508Y97860D01*
X217525Y97946D01*
X217528Y98033D01*
X217517Y98120D01*
X217493Y98203D01*
X217455Y98282D01*
X217305Y98572D01*
X217185Y98876D01*
X217095Y99190D01*
X217034Y99511D01*
X217004Y99837D01*
Y100163D01*
X217034Y100489D01*
X217095Y100810D01*
X217185Y101124D01*
X217305Y101428D01*
X217452Y101720D01*
X217490Y101798D01*
X217514Y101881D01*
X217524Y101967D01*
X217521Y102054D01*
X217504Y102139D01*
X217475Y102220D01*
X217433Y102296D01*
X217379Y102364D01*
X217316Y102423D01*
X217244Y102471D01*
X217166Y102507D01*
X217082Y102531D01*
X216996Y102542D01*
X216910Y102539D01*
X216825Y102522D01*
X216744Y102492D01*
X216714Y102476D01*
Y107374D01*
G37*
G36*
Y117374D02*X216767Y117288D01*
X217237Y116737D01*
X217788Y116267D01*
X218405Y115889D01*
X219074Y115612D01*
X219778Y115443D01*
X219990Y115426D01*
Y114574D01*
X219778Y114557D01*
X219074Y114388D01*
X218405Y114111D01*
X217788Y113733D01*
X217237Y113263D01*
X216767Y112712D01*
X216714Y112626D01*
Y117374D01*
G37*
G36*
Y134448D02*X217062Y134234D01*
X218000Y133846D01*
X218988Y133609D01*
X219990Y133530D01*
Y124574D01*
X219778Y124557D01*
X219074Y124388D01*
X218405Y124111D01*
X217788Y123733D01*
X217237Y123263D01*
X216767Y122712D01*
X216714Y122626D01*
Y134448D01*
G37*
G36*
Y210000D02*X219990D01*
Y146470D01*
X218988Y146391D01*
X218000Y146154D01*
X217062Y145766D01*
X216714Y145552D01*
Y210000D01*
G37*
G36*
X210500D02*X216714D01*
Y145552D01*
X216197Y145235D01*
X215424Y144576D01*
X214765Y143803D01*
X214234Y142938D01*
X213846Y142000D01*
X213609Y141012D01*
X213529Y140000D01*
X213609Y138988D01*
X213846Y138000D01*
X214234Y137062D01*
X214765Y136197D01*
X215424Y135424D01*
X216197Y134765D01*
X216714Y134448D01*
Y122626D01*
X216389Y122095D01*
X216112Y121426D01*
X215943Y120722D01*
X215886Y120000D01*
X215943Y119278D01*
X216112Y118574D01*
X216389Y117905D01*
X216714Y117374D01*
Y112626D01*
X216389Y112095D01*
X216112Y111426D01*
X215943Y110722D01*
X215886Y110000D01*
X215943Y109278D01*
X216112Y108574D01*
X216389Y107905D01*
X216714Y107374D01*
Y102476D01*
X216668Y102450D01*
X216600Y102397D01*
X216541Y102333D01*
X216494Y102261D01*
X216296Y101879D01*
X216139Y101479D01*
X216020Y101066D01*
X215940Y100643D01*
X215900Y100215D01*
Y99785D01*
X215940Y99357D01*
X216020Y98934D01*
X216139Y98521D01*
X216296Y98121D01*
X216490Y97737D01*
X216538Y97664D01*
X216597Y97600D01*
X216666Y97547D01*
X216714Y97520D01*
Y35552D01*
X216197Y35235D01*
X215424Y34576D01*
X214765Y33803D01*
X214234Y32938D01*
X213846Y32000D01*
X213609Y31012D01*
X213529Y30000D01*
X213609Y28988D01*
X213846Y28000D01*
X214234Y27062D01*
X214765Y26197D01*
X215424Y25424D01*
X216197Y24765D01*
X216714Y24448D01*
Y0D01*
X210500D01*
Y5425D01*
X210722Y5443D01*
X211426Y5612D01*
X212095Y5889D01*
X212712Y6267D01*
X213263Y6737D01*
X213733Y7288D01*
X214111Y7905D01*
X214388Y8574D01*
X214557Y9278D01*
X214600Y10000D01*
X214557Y10722D01*
X214388Y11426D01*
X214111Y12095D01*
X213733Y12712D01*
X213263Y13263D01*
X212712Y13733D01*
X212095Y14111D01*
X211426Y14388D01*
X210722Y14557D01*
X210500Y14575D01*
Y95386D01*
X211222Y95443D01*
X211926Y95612D01*
X212595Y95889D01*
X213212Y96267D01*
X213763Y96737D01*
X214233Y97288D01*
X214611Y97905D01*
X214888Y98574D01*
X215057Y99278D01*
X215100Y100000D01*
X215057Y100722D01*
X214888Y101426D01*
X214611Y102095D01*
X214233Y102712D01*
X213763Y103263D01*
X213212Y103733D01*
X212595Y104111D01*
X211926Y104388D01*
X211222Y104557D01*
X210500Y104614D01*
Y105386D01*
X211222Y105443D01*
X211926Y105612D01*
X212595Y105889D01*
X213212Y106267D01*
X213763Y106737D01*
X214233Y107288D01*
X214611Y107905D01*
X214888Y108574D01*
X215057Y109278D01*
X215100Y110000D01*
X215057Y110722D01*
X214888Y111426D01*
X214611Y112095D01*
X214233Y112712D01*
X213763Y113263D01*
X213212Y113733D01*
X212595Y114111D01*
X211926Y114388D01*
X211222Y114557D01*
X210500Y114614D01*
Y115405D01*
X214173Y115410D01*
X214341Y115451D01*
X214501Y115517D01*
X214649Y115607D01*
X214780Y115720D01*
X214893Y115851D01*
X214983Y115999D01*
X215049Y116159D01*
X215090Y116327D01*
X215100Y116500D01*
X215090Y123673D01*
X215049Y123841D01*
X214983Y124001D01*
X214893Y124149D01*
X214780Y124280D01*
X214649Y124393D01*
X214501Y124483D01*
X214341Y124549D01*
X214173Y124590D01*
X214000Y124600D01*
X210500Y124595D01*
Y195406D01*
X213673Y195410D01*
X213841Y195451D01*
X214001Y195517D01*
X214149Y195607D01*
X214280Y195720D01*
X214393Y195851D01*
X214483Y195999D01*
X214549Y196159D01*
X214590Y196327D01*
X214600Y196500D01*
X214590Y203673D01*
X214549Y203841D01*
X214483Y204001D01*
X214393Y204149D01*
X214280Y204280D01*
X214149Y204393D01*
X214001Y204483D01*
X213841Y204549D01*
X213673Y204590D01*
X213500Y204600D01*
X210500Y204596D01*
Y210000D01*
G37*
G36*
X198184D02*X210500D01*
Y204596D01*
X206327Y204590D01*
X206159Y204549D01*
X205999Y204483D01*
X205851Y204393D01*
X205720Y204280D01*
X205607Y204149D01*
X205517Y204001D01*
X205451Y203841D01*
X205410Y203673D01*
X205400Y203500D01*
X205410Y196327D01*
X205451Y196159D01*
X205517Y195999D01*
X205607Y195851D01*
X205720Y195720D01*
X205851Y195607D01*
X205999Y195517D01*
X206159Y195451D01*
X206327Y195410D01*
X206500Y195400D01*
X210500Y195406D01*
Y124595D01*
X206827Y124590D01*
X206659Y124549D01*
X206499Y124483D01*
X206351Y124393D01*
X206220Y124280D01*
X206107Y124149D01*
X206017Y124001D01*
X205951Y123841D01*
X205910Y123673D01*
X205900Y123500D01*
X205910Y116327D01*
X205951Y116159D01*
X206017Y115999D01*
X206107Y115851D01*
X206220Y115720D01*
X206351Y115607D01*
X206499Y115517D01*
X206659Y115451D01*
X206827Y115410D01*
X207000Y115400D01*
X210500Y115405D01*
Y114614D01*
X209778Y114557D01*
X209074Y114388D01*
X208405Y114111D01*
X207788Y113733D01*
X207237Y113263D01*
X206767Y112712D01*
X206389Y112095D01*
X206112Y111426D01*
X205943Y110722D01*
X205886Y110000D01*
X205943Y109278D01*
X206112Y108574D01*
X206389Y107905D01*
X206767Y107288D01*
X207237Y106737D01*
X207788Y106267D01*
X208405Y105889D01*
X209074Y105612D01*
X209778Y105443D01*
X210500Y105386D01*
Y104614D01*
X209778Y104557D01*
X209074Y104388D01*
X208405Y104111D01*
X207788Y103733D01*
X207237Y103263D01*
X206767Y102712D01*
X206389Y102095D01*
X206112Y101426D01*
X205943Y100722D01*
X205886Y100000D01*
X205943Y99278D01*
X206112Y98574D01*
X206389Y97905D01*
X206767Y97288D01*
X207237Y96737D01*
X207788Y96267D01*
X208405Y95889D01*
X209074Y95612D01*
X209778Y95443D01*
X210500Y95386D01*
Y14575D01*
X210000Y14614D01*
X209278Y14557D01*
X208574Y14388D01*
X207905Y14111D01*
X207288Y13733D01*
X206737Y13263D01*
X206267Y12712D01*
X205889Y12095D01*
X205612Y11426D01*
X205443Y10722D01*
X205386Y10000D01*
X205443Y9278D01*
X205612Y8574D01*
X205889Y7905D01*
X206267Y7288D01*
X206737Y6737D01*
X207288Y6267D01*
X207905Y5889D01*
X208574Y5612D01*
X209278Y5443D01*
X210000Y5386D01*
X210500Y5425D01*
Y0D01*
X198184D01*
Y5773D01*
X198574Y5612D01*
X199278Y5443D01*
X200000Y5386D01*
X200722Y5443D01*
X201426Y5612D01*
X202095Y5889D01*
X202712Y6267D01*
X203263Y6737D01*
X203733Y7288D01*
X204111Y7905D01*
X204388Y8574D01*
X204557Y9278D01*
X204600Y10000D01*
X204557Y10722D01*
X204388Y11426D01*
X204111Y12095D01*
X203733Y12712D01*
X203263Y13263D01*
X202712Y13733D01*
X202095Y14111D01*
X201426Y14388D01*
X200722Y14557D01*
X200000Y14614D01*
X199278Y14557D01*
X198574Y14388D01*
X198184Y14227D01*
Y123990D01*
X198189Y123989D01*
X198738Y124032D01*
X199274Y124161D01*
X199783Y124372D01*
X200253Y124660D01*
X200671Y125017D01*
X201029Y125436D01*
X201317Y125906D01*
X201528Y126415D01*
X201657Y126951D01*
X201689Y127500D01*
X201657Y128049D01*
X201528Y128585D01*
X201317Y129094D01*
X201029Y129564D01*
X200671Y129983D01*
X200253Y130340D01*
X199783Y130628D01*
X199274Y130839D01*
X198738Y130968D01*
X198189Y131011D01*
X198184Y131010D01*
Y195773D01*
X198574Y195612D01*
X199278Y195443D01*
X200000Y195386D01*
X200722Y195443D01*
X201426Y195612D01*
X202095Y195889D01*
X202712Y196267D01*
X203263Y196737D01*
X203733Y197288D01*
X204111Y197905D01*
X204388Y198574D01*
X204557Y199278D01*
X204600Y200000D01*
X204557Y200722D01*
X204388Y201426D01*
X204111Y202095D01*
X203733Y202712D01*
X203263Y203263D01*
X202712Y203733D01*
X202095Y204111D01*
X201426Y204388D01*
X200722Y204557D01*
X200000Y204614D01*
X199278Y204557D01*
X198574Y204388D01*
X198184Y204227D01*
Y210000D01*
G37*
G36*
X189995D02*X198184D01*
Y204227D01*
X197905Y204111D01*
X197288Y203733D01*
X196737Y203263D01*
X196267Y202712D01*
X195889Y202095D01*
X195612Y201426D01*
X195443Y200722D01*
X195386Y200000D01*
X195443Y199278D01*
X195612Y198574D01*
X195889Y197905D01*
X196267Y197288D01*
X196737Y196737D01*
X197288Y196267D01*
X197905Y195889D01*
X198184Y195773D01*
Y131010D01*
X197640Y130968D01*
X197104Y130839D01*
X196595Y130628D01*
X196125Y130340D01*
X195706Y129983D01*
X195349Y129564D01*
X195061Y129094D01*
X194850Y128585D01*
X194721Y128049D01*
X194678Y127500D01*
X194721Y126951D01*
X194850Y126415D01*
X195061Y125906D01*
X195349Y125436D01*
X195706Y125017D01*
X196125Y124660D01*
X196595Y124372D01*
X197104Y124161D01*
X197640Y124032D01*
X198184Y123990D01*
Y14227D01*
X197905Y14111D01*
X197288Y13733D01*
X196737Y13263D01*
X196267Y12712D01*
X195889Y12095D01*
X195612Y11426D01*
X195443Y10722D01*
X195386Y10000D01*
X195443Y9278D01*
X195612Y8574D01*
X195889Y7905D01*
X196267Y7288D01*
X196737Y6737D01*
X197288Y6267D01*
X197905Y5889D01*
X198184Y5773D01*
Y0D01*
X189995D01*
Y5386D01*
X190000Y5386D01*
X190722Y5443D01*
X191426Y5612D01*
X192095Y5889D01*
X192712Y6267D01*
X193263Y6737D01*
X193733Y7288D01*
X194111Y7905D01*
X194388Y8574D01*
X194557Y9278D01*
X194600Y10000D01*
X194557Y10722D01*
X194388Y11426D01*
X194111Y12095D01*
X193733Y12712D01*
X193263Y13263D01*
X192712Y13733D01*
X192095Y14111D01*
X191426Y14388D01*
X190722Y14557D01*
X190000Y14614D01*
X189995Y14614D01*
Y71490D01*
X190000Y71489D01*
X190549Y71532D01*
X191085Y71661D01*
X191594Y71872D01*
X192064Y72160D01*
X192483Y72517D01*
X192840Y72936D01*
X193128Y73406D01*
X193339Y73915D01*
X193468Y74451D01*
X193500Y75000D01*
X193468Y75549D01*
X193339Y76085D01*
X193128Y76594D01*
X192840Y77064D01*
X192483Y77483D01*
X192064Y77840D01*
X191594Y78128D01*
X191085Y78339D01*
X190549Y78468D01*
X190000Y78511D01*
X189995Y78510D01*
Y78990D01*
X190000Y78989D01*
X190549Y79032D01*
X191085Y79161D01*
X191594Y79372D01*
X192064Y79660D01*
X192483Y80017D01*
X192840Y80436D01*
X193128Y80906D01*
X193339Y81415D01*
X193468Y81951D01*
X193500Y82500D01*
X193468Y83049D01*
X193339Y83585D01*
X193128Y84094D01*
X192840Y84564D01*
X192483Y84983D01*
X192064Y85340D01*
X191594Y85628D01*
X191085Y85839D01*
X190549Y85968D01*
X190000Y86011D01*
X189995Y86010D01*
Y86490D01*
X190000Y86489D01*
X190549Y86532D01*
X191085Y86661D01*
X191594Y86872D01*
X192064Y87160D01*
X192483Y87517D01*
X192840Y87936D01*
X193128Y88406D01*
X193339Y88915D01*
X193468Y89451D01*
X193500Y90000D01*
X193468Y90549D01*
X193339Y91085D01*
X193128Y91594D01*
X192840Y92064D01*
X192483Y92483D01*
X192064Y92840D01*
X191594Y93128D01*
X191085Y93339D01*
X190549Y93468D01*
X190000Y93511D01*
X189995Y93510D01*
Y93990D01*
X190000Y93989D01*
X190549Y94032D01*
X191085Y94161D01*
X191594Y94372D01*
X192064Y94660D01*
X192483Y95017D01*
X192840Y95436D01*
X193128Y95906D01*
X193339Y96415D01*
X193468Y96951D01*
X193500Y97500D01*
X193468Y98049D01*
X193339Y98585D01*
X193128Y99094D01*
X192840Y99564D01*
X192483Y99983D01*
X192064Y100340D01*
X191594Y100628D01*
X191085Y100839D01*
X190549Y100968D01*
X190000Y101011D01*
X189995Y101010D01*
Y101490D01*
X190000Y101489D01*
X190549Y101532D01*
X191085Y101661D01*
X191594Y101872D01*
X192064Y102160D01*
X192483Y102517D01*
X192840Y102936D01*
X193128Y103406D01*
X193339Y103915D01*
X193468Y104451D01*
X193500Y105000D01*
X193468Y105549D01*
X193339Y106085D01*
X193128Y106594D01*
X192840Y107064D01*
X192483Y107483D01*
X192064Y107840D01*
X191594Y108128D01*
X191085Y108339D01*
X190549Y108468D01*
X190000Y108511D01*
X189995Y108510D01*
Y195386D01*
X190000Y195386D01*
X190722Y195443D01*
X191426Y195612D01*
X192095Y195889D01*
X192712Y196267D01*
X193263Y196737D01*
X193733Y197288D01*
X194111Y197905D01*
X194388Y198574D01*
X194557Y199278D01*
X194600Y200000D01*
X194557Y200722D01*
X194388Y201426D01*
X194111Y202095D01*
X193733Y202712D01*
X193263Y203263D01*
X192712Y203733D01*
X192095Y204111D01*
X191426Y204388D01*
X190722Y204557D01*
X190000Y204614D01*
X189995Y204614D01*
Y210000D01*
G37*
G36*
X179993D02*X189995D01*
Y204614D01*
X189278Y204557D01*
X188574Y204388D01*
X187905Y204111D01*
X187288Y203733D01*
X186737Y203263D01*
X186267Y202712D01*
X185889Y202095D01*
X185612Y201426D01*
X185443Y200722D01*
X185386Y200000D01*
X185443Y199278D01*
X185612Y198574D01*
X185889Y197905D01*
X186267Y197288D01*
X186737Y196737D01*
X187288Y196267D01*
X187905Y195889D01*
X188574Y195612D01*
X189278Y195443D01*
X189995Y195386D01*
Y108510D01*
X189451Y108468D01*
X188915Y108339D01*
X188406Y108128D01*
X187936Y107840D01*
X187517Y107483D01*
X187160Y107064D01*
X186872Y106594D01*
X186661Y106085D01*
X186532Y105549D01*
X186489Y105000D01*
X186532Y104451D01*
X186661Y103915D01*
X186872Y103406D01*
X187160Y102936D01*
X187517Y102517D01*
X187936Y102160D01*
X188406Y101872D01*
X188915Y101661D01*
X189451Y101532D01*
X189995Y101490D01*
Y101010D01*
X189451Y100968D01*
X188915Y100839D01*
X188406Y100628D01*
X187936Y100340D01*
X187517Y99983D01*
X187160Y99564D01*
X186872Y99094D01*
X186661Y98585D01*
X186532Y98049D01*
X186489Y97500D01*
X186532Y96951D01*
X186661Y96415D01*
X186872Y95906D01*
X187160Y95436D01*
X187517Y95017D01*
X187936Y94660D01*
X188406Y94372D01*
X188915Y94161D01*
X189451Y94032D01*
X189995Y93990D01*
Y93510D01*
X189451Y93468D01*
X188915Y93339D01*
X188406Y93128D01*
X187936Y92840D01*
X187517Y92483D01*
X187160Y92064D01*
X186872Y91594D01*
X186661Y91085D01*
X186532Y90549D01*
X186489Y90000D01*
X186532Y89451D01*
X186661Y88915D01*
X186872Y88406D01*
X187160Y87936D01*
X187517Y87517D01*
X187936Y87160D01*
X188406Y86872D01*
X188915Y86661D01*
X189451Y86532D01*
X189995Y86490D01*
Y86010D01*
X189451Y85968D01*
X188915Y85839D01*
X188406Y85628D01*
X187936Y85340D01*
X187517Y84983D01*
X187160Y84564D01*
X186872Y84094D01*
X186661Y83585D01*
X186532Y83049D01*
X186489Y82500D01*
X186532Y81951D01*
X186661Y81415D01*
X186872Y80906D01*
X187160Y80436D01*
X187517Y80017D01*
X187936Y79660D01*
X188406Y79372D01*
X188915Y79161D01*
X189451Y79032D01*
X189995Y78990D01*
Y78510D01*
X189451Y78468D01*
X188915Y78339D01*
X188406Y78128D01*
X187936Y77840D01*
X187517Y77483D01*
X187160Y77064D01*
X186872Y76594D01*
X186661Y76085D01*
X186532Y75549D01*
X186489Y75000D01*
X186532Y74451D01*
X186661Y73915D01*
X186872Y73406D01*
X187160Y72936D01*
X187517Y72517D01*
X187936Y72160D01*
X188406Y71872D01*
X188915Y71661D01*
X189451Y71532D01*
X189995Y71490D01*
Y14614D01*
X189278Y14557D01*
X188574Y14388D01*
X187905Y14111D01*
X187288Y13733D01*
X186737Y13263D01*
X186267Y12712D01*
X185889Y12095D01*
X185612Y11426D01*
X185443Y10722D01*
X185386Y10000D01*
X185443Y9278D01*
X185612Y8574D01*
X185889Y7905D01*
X186267Y7288D01*
X186737Y6737D01*
X187288Y6267D01*
X187905Y5889D01*
X188574Y5612D01*
X189278Y5443D01*
X189995Y5386D01*
Y0D01*
X179993D01*
Y5386D01*
X180000Y5386D01*
X180722Y5443D01*
X181426Y5612D01*
X182095Y5889D01*
X182712Y6267D01*
X183263Y6737D01*
X183733Y7288D01*
X184111Y7905D01*
X184388Y8574D01*
X184557Y9278D01*
X184600Y10000D01*
X184557Y10722D01*
X184388Y11426D01*
X184111Y12095D01*
X183733Y12712D01*
X183263Y13263D01*
X182712Y13733D01*
X182095Y14111D01*
X181426Y14388D01*
X180722Y14557D01*
X180000Y14614D01*
X179993Y14614D01*
Y195386D01*
X180000Y195386D01*
X180722Y195443D01*
X181426Y195612D01*
X182095Y195889D01*
X182712Y196267D01*
X183263Y196737D01*
X183733Y197288D01*
X184111Y197905D01*
X184388Y198574D01*
X184557Y199278D01*
X184600Y200000D01*
X184557Y200722D01*
X184388Y201426D01*
X184111Y202095D01*
X183733Y202712D01*
X183263Y203263D01*
X182712Y203733D01*
X182095Y204111D01*
X181426Y204388D01*
X180722Y204557D01*
X180000Y204614D01*
X179993Y204614D01*
Y210000D01*
G37*
G36*
X169993D02*X179993D01*
Y204614D01*
X179278Y204557D01*
X178574Y204388D01*
X177905Y204111D01*
X177288Y203733D01*
X176737Y203263D01*
X176267Y202712D01*
X175889Y202095D01*
X175612Y201426D01*
X175443Y200722D01*
X175386Y200000D01*
X175443Y199278D01*
X175612Y198574D01*
X175889Y197905D01*
X176267Y197288D01*
X176737Y196737D01*
X177288Y196267D01*
X177905Y195889D01*
X178574Y195612D01*
X179278Y195443D01*
X179993Y195386D01*
Y14614D01*
X179278Y14557D01*
X178574Y14388D01*
X177905Y14111D01*
X177288Y13733D01*
X176737Y13263D01*
X176267Y12712D01*
X175889Y12095D01*
X175612Y11426D01*
X175443Y10722D01*
X175386Y10000D01*
X175443Y9278D01*
X175612Y8574D01*
X175889Y7905D01*
X176267Y7288D01*
X176737Y6737D01*
X177288Y6267D01*
X177905Y5889D01*
X178574Y5612D01*
X179278Y5443D01*
X179993Y5386D01*
Y0D01*
X169993D01*
Y5386D01*
X170000Y5386D01*
X170722Y5443D01*
X171426Y5612D01*
X172095Y5889D01*
X172712Y6267D01*
X173263Y6737D01*
X173733Y7288D01*
X174111Y7905D01*
X174388Y8574D01*
X174557Y9278D01*
X174600Y10000D01*
X174557Y10722D01*
X174388Y11426D01*
X174111Y12095D01*
X173733Y12712D01*
X173263Y13263D01*
X172712Y13733D01*
X172095Y14111D01*
X171426Y14388D01*
X170722Y14557D01*
X170000Y14614D01*
X169993Y14614D01*
Y195386D01*
X170000Y195386D01*
X170722Y195443D01*
X171426Y195612D01*
X172095Y195889D01*
X172712Y196267D01*
X173263Y196737D01*
X173733Y197288D01*
X174111Y197905D01*
X174388Y198574D01*
X174557Y199278D01*
X174600Y200000D01*
X174557Y200722D01*
X174388Y201426D01*
X174111Y202095D01*
X173733Y202712D01*
X173263Y203263D01*
X172712Y203733D01*
X172095Y204111D01*
X171426Y204388D01*
X170722Y204557D01*
X170000Y204614D01*
X169993Y204614D01*
Y210000D01*
G37*
G36*
X159994D02*X169993D01*
Y204614D01*
X169278Y204557D01*
X168574Y204388D01*
X167905Y204111D01*
X167288Y203733D01*
X166737Y203263D01*
X166267Y202712D01*
X165889Y202095D01*
X165612Y201426D01*
X165443Y200722D01*
X165386Y200000D01*
X165443Y199278D01*
X165612Y198574D01*
X165889Y197905D01*
X166267Y197288D01*
X166737Y196737D01*
X167288Y196267D01*
X167905Y195889D01*
X168574Y195612D01*
X169278Y195443D01*
X169993Y195386D01*
Y14614D01*
X169278Y14557D01*
X168574Y14388D01*
X167905Y14111D01*
X167288Y13733D01*
X166737Y13263D01*
X166267Y12712D01*
X165889Y12095D01*
X165612Y11426D01*
X165443Y10722D01*
X165386Y10000D01*
X165443Y9278D01*
X165612Y8574D01*
X165889Y7905D01*
X166267Y7288D01*
X166737Y6737D01*
X167288Y6267D01*
X167905Y5889D01*
X168574Y5612D01*
X169278Y5443D01*
X169993Y5386D01*
Y0D01*
X159994D01*
Y5405D01*
X163673Y5410D01*
X163841Y5451D01*
X164001Y5517D01*
X164149Y5607D01*
X164280Y5720D01*
X164393Y5851D01*
X164483Y5999D01*
X164549Y6159D01*
X164590Y6327D01*
X164600Y6500D01*
X164590Y13673D01*
X164549Y13841D01*
X164483Y14001D01*
X164393Y14149D01*
X164280Y14280D01*
X164149Y14393D01*
X164001Y14483D01*
X163841Y14549D01*
X163673Y14590D01*
X163500Y14600D01*
X159994Y14595D01*
Y70488D01*
X160000Y70488D01*
X160628Y70537D01*
X161240Y70684D01*
X161822Y70925D01*
X162358Y71254D01*
X162837Y71663D01*
X163246Y72142D01*
X163575Y72678D01*
X163816Y73260D01*
X163963Y73872D01*
X164000Y74500D01*
X163963Y75128D01*
X163816Y75740D01*
X163575Y76322D01*
X163246Y76858D01*
X162837Y77337D01*
X162358Y77746D01*
X161822Y78075D01*
X161240Y78316D01*
X160628Y78463D01*
X160000Y78512D01*
X159994Y78512D01*
Y195386D01*
X160000Y195386D01*
X160722Y195443D01*
X161426Y195612D01*
X162095Y195889D01*
X162712Y196267D01*
X163263Y196737D01*
X163733Y197288D01*
X164111Y197905D01*
X164388Y198574D01*
X164557Y199278D01*
X164600Y200000D01*
X164557Y200722D01*
X164388Y201426D01*
X164111Y202095D01*
X163733Y202712D01*
X163263Y203263D01*
X162712Y203733D01*
X162095Y204111D01*
X161426Y204388D01*
X160722Y204557D01*
X160000Y204614D01*
X159994Y204614D01*
Y210000D01*
G37*
G36*
X149993D02*X159994D01*
Y204614D01*
X159278Y204557D01*
X158574Y204388D01*
X157905Y204111D01*
X157288Y203733D01*
X156737Y203263D01*
X156267Y202712D01*
X155889Y202095D01*
X155612Y201426D01*
X155443Y200722D01*
X155386Y200000D01*
X155443Y199278D01*
X155612Y198574D01*
X155889Y197905D01*
X156267Y197288D01*
X156737Y196737D01*
X157288Y196267D01*
X157905Y195889D01*
X158574Y195612D01*
X159278Y195443D01*
X159994Y195386D01*
Y78512D01*
X159372Y78463D01*
X158760Y78316D01*
X158178Y78075D01*
X157642Y77746D01*
X157163Y77337D01*
X156754Y76858D01*
X156425Y76322D01*
X156184Y75740D01*
X156037Y75128D01*
X155988Y74500D01*
X156037Y73872D01*
X156184Y73260D01*
X156425Y72678D01*
X156754Y72142D01*
X157163Y71663D01*
X157642Y71254D01*
X158178Y70925D01*
X158760Y70684D01*
X159372Y70537D01*
X159994Y70488D01*
Y14595D01*
X156327Y14590D01*
X156159Y14549D01*
X155999Y14483D01*
X155851Y14393D01*
X155720Y14280D01*
X155607Y14149D01*
X155517Y14001D01*
X155451Y13841D01*
X155410Y13673D01*
X155400Y13500D01*
X155410Y6327D01*
X155451Y6159D01*
X155517Y5999D01*
X155607Y5851D01*
X155720Y5720D01*
X155851Y5607D01*
X155999Y5517D01*
X156159Y5451D01*
X156327Y5410D01*
X156500Y5400D01*
X159994Y5405D01*
Y0D01*
X149993D01*
Y195386D01*
X150000Y195386D01*
X150722Y195443D01*
X151426Y195612D01*
X152095Y195889D01*
X152712Y196267D01*
X153263Y196737D01*
X153733Y197288D01*
X154111Y197905D01*
X154388Y198574D01*
X154557Y199278D01*
X154600Y200000D01*
X154557Y200722D01*
X154388Y201426D01*
X154111Y202095D01*
X153733Y202712D01*
X153263Y203263D01*
X152712Y203733D01*
X152095Y204111D01*
X151426Y204388D01*
X150722Y204557D01*
X150000Y204614D01*
X149993Y204614D01*
Y210000D01*
G37*
G36*
X139994D02*X149993D01*
Y204614D01*
X149278Y204557D01*
X148574Y204388D01*
X147905Y204111D01*
X147288Y203733D01*
X146737Y203263D01*
X146267Y202712D01*
X145889Y202095D01*
X145612Y201426D01*
X145443Y200722D01*
X145386Y200000D01*
X145443Y199278D01*
X145612Y198574D01*
X145889Y197905D01*
X146267Y197288D01*
X146737Y196737D01*
X147288Y196267D01*
X147905Y195889D01*
X148574Y195612D01*
X149278Y195443D01*
X149993Y195386D01*
Y0D01*
X139994D01*
Y5386D01*
X140000Y5386D01*
X140722Y5443D01*
X141426Y5612D01*
X142095Y5889D01*
X142712Y6267D01*
X143263Y6737D01*
X143733Y7288D01*
X144111Y7905D01*
X144388Y8574D01*
X144557Y9278D01*
X144600Y10000D01*
X144557Y10722D01*
X144388Y11426D01*
X144111Y12095D01*
X143733Y12712D01*
X143263Y13263D01*
X142712Y13733D01*
X142095Y14111D01*
X141426Y14388D01*
X140722Y14557D01*
X140000Y14614D01*
X139994Y14614D01*
Y15988D01*
X140000Y15988D01*
X140628Y16037D01*
X141240Y16184D01*
X141822Y16425D01*
X142358Y16754D01*
X142837Y17163D01*
X143246Y17642D01*
X143575Y18178D01*
X143816Y18760D01*
X143963Y19372D01*
X144000Y20000D01*
X143963Y20628D01*
X143816Y21240D01*
X143575Y21822D01*
X143246Y22358D01*
X142837Y22837D01*
X142358Y23246D01*
X141822Y23575D01*
X141240Y23816D01*
X140628Y23963D01*
X140000Y24012D01*
X139994Y24012D01*
Y127441D01*
X140032Y126951D01*
X140161Y126415D01*
X140372Y125906D01*
X140660Y125436D01*
X141017Y125017D01*
X141436Y124660D01*
X141906Y124372D01*
X142415Y124161D01*
X142951Y124032D01*
X143500Y123989D01*
X144049Y124032D01*
X144585Y124161D01*
X145094Y124372D01*
X145564Y124660D01*
X145983Y125017D01*
X146340Y125436D01*
X146628Y125906D01*
X146839Y126415D01*
X146968Y126951D01*
X147000Y127500D01*
X146968Y128049D01*
X146839Y128585D01*
X146628Y129094D01*
X146340Y129564D01*
X145983Y129983D01*
X145564Y130340D01*
X145094Y130628D01*
X144585Y130839D01*
X144049Y130968D01*
X143500Y131011D01*
X142951Y130968D01*
X142415Y130839D01*
X141906Y130628D01*
X141436Y130340D01*
X141017Y129983D01*
X140660Y129564D01*
X140372Y129094D01*
X140161Y128585D01*
X140032Y128049D01*
X139994Y127559D01*
Y135941D01*
X140032Y135451D01*
X140161Y134915D01*
X140372Y134406D01*
X140660Y133936D01*
X141017Y133517D01*
X141436Y133160D01*
X141906Y132872D01*
X142415Y132661D01*
X142951Y132532D01*
X143500Y132489D01*
X144049Y132532D01*
X144585Y132661D01*
X145094Y132872D01*
X145564Y133160D01*
X145983Y133517D01*
X146340Y133936D01*
X146628Y134406D01*
X146839Y134915D01*
X146968Y135451D01*
X147000Y136000D01*
X146968Y136549D01*
X146839Y137085D01*
X146628Y137594D01*
X146340Y138064D01*
X145983Y138483D01*
X145564Y138840D01*
X145094Y139128D01*
X144585Y139339D01*
X144049Y139468D01*
X143500Y139511D01*
X142951Y139468D01*
X142415Y139339D01*
X141906Y139128D01*
X141436Y138840D01*
X141017Y138483D01*
X140660Y138064D01*
X140372Y137594D01*
X140161Y137085D01*
X140032Y136549D01*
X139994Y136059D01*
Y195386D01*
X140000Y195386D01*
X140722Y195443D01*
X141426Y195612D01*
X142095Y195889D01*
X142712Y196267D01*
X143263Y196737D01*
X143733Y197288D01*
X144111Y197905D01*
X144388Y198574D01*
X144557Y199278D01*
X144600Y200000D01*
X144557Y200722D01*
X144388Y201426D01*
X144111Y202095D01*
X143733Y202712D01*
X143263Y203263D01*
X142712Y203733D01*
X142095Y204111D01*
X141426Y204388D01*
X140722Y204557D01*
X140000Y204614D01*
X139994Y204614D01*
Y210000D01*
G37*
G36*
X135495Y9062D02*X135612Y8574D01*
X135889Y7905D01*
X136267Y7288D01*
X136737Y6737D01*
X137288Y6267D01*
X137905Y5889D01*
X138574Y5612D01*
X139278Y5443D01*
X139994Y5386D01*
Y0D01*
X135495D01*
Y9062D01*
G37*
G36*
Y199062D02*X135612Y198574D01*
X135889Y197905D01*
X136267Y197288D01*
X136737Y196737D01*
X137288Y196267D01*
X137905Y195889D01*
X138574Y195612D01*
X139278Y195443D01*
X139994Y195386D01*
Y136059D01*
X139989Y136000D01*
X139994Y135941D01*
Y127559D01*
X139989Y127500D01*
X139994Y127441D01*
Y24012D01*
X139372Y23963D01*
X138760Y23816D01*
X138178Y23575D01*
X137642Y23246D01*
X137163Y22837D01*
X136754Y22358D01*
X136425Y21822D01*
X136184Y21240D01*
X136037Y20628D01*
X135988Y20000D01*
X136037Y19372D01*
X136184Y18760D01*
X136425Y18178D01*
X136754Y17642D01*
X137163Y17163D01*
X137642Y16754D01*
X138178Y16425D01*
X138760Y16184D01*
X139372Y16037D01*
X139994Y15988D01*
Y14614D01*
X139278Y14557D01*
X138574Y14388D01*
X137905Y14111D01*
X137288Y13733D01*
X136737Y13263D01*
X136267Y12712D01*
X135889Y12095D01*
X135612Y11426D01*
X135495Y10938D01*
Y119990D01*
X135500Y119989D01*
X136049Y120032D01*
X136585Y120161D01*
X137094Y120372D01*
X137564Y120660D01*
X137983Y121017D01*
X138340Y121436D01*
X138628Y121906D01*
X138839Y122415D01*
X138968Y122951D01*
X139000Y123500D01*
X138968Y124049D01*
X138839Y124585D01*
X138628Y125094D01*
X138340Y125564D01*
X137983Y125983D01*
X137564Y126340D01*
X137094Y126628D01*
X136585Y126839D01*
X136049Y126968D01*
X135500Y127011D01*
X135495Y127010D01*
Y199062D01*
G37*
G36*
Y210000D02*X139994D01*
Y204614D01*
X139278Y204557D01*
X138574Y204388D01*
X137905Y204111D01*
X137288Y203733D01*
X136737Y203263D01*
X136267Y202712D01*
X135889Y202095D01*
X135612Y201426D01*
X135495Y200938D01*
Y210000D01*
G37*
G36*
X133786Y120445D02*X133906Y120372D01*
X134415Y120161D01*
X134951Y120032D01*
X135495Y119990D01*
Y10938D01*
X135443Y10722D01*
X135386Y10000D01*
X135443Y9278D01*
X135495Y9062D01*
Y0D01*
X133786D01*
Y7524D01*
X133832Y7550D01*
X133900Y7603D01*
X133959Y7667D01*
X134006Y7739D01*
X134204Y8121D01*
X134361Y8521D01*
X134480Y8934D01*
X134560Y9357D01*
X134600Y9785D01*
Y10215D01*
X134560Y10643D01*
X134480Y11066D01*
X134361Y11479D01*
X134204Y11879D01*
X134010Y12263D01*
X133962Y12336D01*
X133903Y12400D01*
X133834Y12453D01*
X133786Y12480D01*
Y120445D01*
G37*
G36*
Y210000D02*X135495D01*
Y200938D01*
X135443Y200722D01*
X135386Y200000D01*
X135443Y199278D01*
X135495Y199062D01*
Y127010D01*
X134951Y126968D01*
X134415Y126839D01*
X133906Y126628D01*
X133786Y126555D01*
Y210000D01*
G37*
G36*
X130002D02*X133786D01*
Y126555D01*
X133436Y126340D01*
X133017Y125983D01*
X132660Y125564D01*
X132372Y125094D01*
X132161Y124585D01*
X132032Y124049D01*
X131989Y123500D01*
X132032Y122951D01*
X132161Y122415D01*
X132372Y121906D01*
X132660Y121436D01*
X133017Y121017D01*
X133436Y120660D01*
X133786Y120445D01*
Y12480D01*
X133758Y12496D01*
X133676Y12526D01*
X133591Y12542D01*
X133503Y12546D01*
X133417Y12535D01*
X133333Y12511D01*
X133254Y12474D01*
X133182Y12426D01*
X133118Y12366D01*
X133064Y12298D01*
X133022Y12221D01*
X132992Y12140D01*
X132975Y12054D01*
X132972Y11967D01*
X132983Y11880D01*
X133007Y11797D01*
X133045Y11718D01*
X133195Y11428D01*
X133315Y11124D01*
X133405Y10810D01*
X133466Y10489D01*
X133496Y10163D01*
Y9837D01*
X133466Y9511D01*
X133405Y9190D01*
X133315Y8876D01*
X133195Y8572D01*
X133048Y8280D01*
X133010Y8202D01*
X132986Y8119D01*
X132976Y8033D01*
X132979Y7946D01*
X132996Y7861D01*
X133025Y7780D01*
X133067Y7704D01*
X133121Y7636D01*
X133184Y7577D01*
X133256Y7529D01*
X133334Y7493D01*
X133418Y7469D01*
X133504Y7458D01*
X133590Y7461D01*
X133675Y7478D01*
X133756Y7508D01*
X133786Y7524D01*
Y0D01*
X130002D01*
Y5400D01*
X130215D01*
X130643Y5440D01*
X131066Y5520D01*
X131479Y5639D01*
X131879Y5796D01*
X132263Y5990D01*
X132336Y6038D01*
X132400Y6097D01*
X132453Y6166D01*
X132496Y6242D01*
X132526Y6324D01*
X132542Y6409D01*
X132546Y6497D01*
X132535Y6583D01*
X132511Y6667D01*
X132474Y6746D01*
X132426Y6818D01*
X132366Y6882D01*
X132298Y6936D01*
X132221Y6978D01*
X132140Y7008D01*
X132054Y7025D01*
X131967Y7028D01*
X131880Y7017D01*
X131797Y6993D01*
X131718Y6955D01*
X131428Y6805D01*
X131124Y6685D01*
X130810Y6595D01*
X130489Y6534D01*
X130163Y6504D01*
X130002D01*
Y13496D01*
X130163D01*
X130489Y13466D01*
X130810Y13405D01*
X131124Y13315D01*
X131428Y13195D01*
X131720Y13048D01*
X131798Y13010D01*
X131881Y12986D01*
X131967Y12976D01*
X132054Y12979D01*
X132139Y12996D01*
X132220Y13025D01*
X132296Y13067D01*
X132364Y13121D01*
X132423Y13184D01*
X132471Y13256D01*
X132507Y13334D01*
X132531Y13418D01*
X132542Y13504D01*
X132539Y13590D01*
X132522Y13675D01*
X132492Y13756D01*
X132450Y13832D01*
X132397Y13900D01*
X132333Y13959D01*
X132261Y14006D01*
X131879Y14204D01*
X131479Y14361D01*
X131066Y14480D01*
X130643Y14560D01*
X130215Y14600D01*
X130002D01*
Y210000D01*
G37*
G36*
X126495D02*X130002D01*
Y14600D01*
X129785D01*
X129357Y14560D01*
X128934Y14480D01*
X128521Y14361D01*
X128121Y14204D01*
X127737Y14010D01*
X127664Y13962D01*
X127600Y13903D01*
X127547Y13834D01*
X127504Y13758D01*
X127474Y13676D01*
X127458Y13591D01*
X127454Y13503D01*
X127465Y13417D01*
X127489Y13333D01*
X127526Y13254D01*
X127574Y13182D01*
X127634Y13118D01*
X127702Y13064D01*
X127779Y13022D01*
X127860Y12992D01*
X127946Y12975D01*
X128033Y12972D01*
X128120Y12983D01*
X128203Y13007D01*
X128282Y13045D01*
X128572Y13195D01*
X128876Y13315D01*
X129190Y13405D01*
X129511Y13466D01*
X129837Y13496D01*
X130002D01*
Y6504D01*
X129837D01*
X129511Y6534D01*
X129190Y6595D01*
X128876Y6685D01*
X128572Y6805D01*
X128280Y6952D01*
X128202Y6990D01*
X128119Y7014D01*
X128033Y7024D01*
X127946Y7021D01*
X127861Y7004D01*
X127780Y6975D01*
X127704Y6933D01*
X127636Y6879D01*
X127577Y6816D01*
X127529Y6744D01*
X127493Y6666D01*
X127469Y6582D01*
X127458Y6496D01*
X127461Y6410D01*
X127478Y6325D01*
X127508Y6244D01*
X127550Y6168D01*
X127603Y6100D01*
X127667Y6041D01*
X127739Y5994D01*
X128121Y5796D01*
X128521Y5639D01*
X128934Y5520D01*
X129357Y5440D01*
X129785Y5400D01*
X130002D01*
Y0D01*
X126495D01*
Y7455D01*
X126497Y7454D01*
X126583Y7465D01*
X126667Y7489D01*
X126746Y7526D01*
X126818Y7574D01*
X126882Y7634D01*
X126936Y7702D01*
X126978Y7779D01*
X127008Y7860D01*
X127025Y7946D01*
X127028Y8033D01*
X127017Y8120D01*
X126993Y8203D01*
X126955Y8282D01*
X126805Y8572D01*
X126685Y8876D01*
X126595Y9190D01*
X126534Y9511D01*
X126504Y9837D01*
Y10163D01*
X126534Y10489D01*
X126595Y10810D01*
X126685Y11124D01*
X126805Y11428D01*
X126952Y11720D01*
X126990Y11798D01*
X127014Y11881D01*
X127024Y11967D01*
X127021Y12054D01*
X127004Y12139D01*
X126975Y12220D01*
X126933Y12296D01*
X126879Y12364D01*
X126816Y12423D01*
X126744Y12471D01*
X126666Y12507D01*
X126582Y12531D01*
X126496Y12542D01*
X126495Y12542D01*
Y142990D01*
X126500Y142989D01*
X127049Y143032D01*
X127585Y143161D01*
X128094Y143372D01*
X128564Y143660D01*
X128983Y144017D01*
X129340Y144436D01*
X129628Y144906D01*
X129839Y145415D01*
X129968Y145951D01*
X130000Y146500D01*
X129968Y147049D01*
X129839Y147585D01*
X129628Y148094D01*
X129340Y148564D01*
X128983Y148983D01*
X128564Y149340D01*
X128094Y149628D01*
X127585Y149839D01*
X127049Y149968D01*
X126500Y150011D01*
X126495Y150010D01*
Y195409D01*
X127673Y195410D01*
X127841Y195451D01*
X128001Y195517D01*
X128149Y195607D01*
X128280Y195720D01*
X128393Y195851D01*
X128483Y195999D01*
X128549Y196159D01*
X128590Y196327D01*
X128600Y196500D01*
X128590Y203673D01*
X128549Y203841D01*
X128483Y204001D01*
X128393Y204149D01*
X128280Y204280D01*
X128149Y204393D01*
X128001Y204483D01*
X127841Y204549D01*
X127673Y204590D01*
X127500Y204600D01*
X126495Y204599D01*
Y210000D01*
G37*
G36*
X123786Y144289D02*X124017Y144017D01*
X124436Y143660D01*
X124906Y143372D01*
X125415Y143161D01*
X125951Y143032D01*
X126495Y142990D01*
Y12542D01*
X126410Y12539D01*
X126325Y12522D01*
X126244Y12492D01*
X126168Y12450D01*
X126100Y12397D01*
X126041Y12333D01*
X125994Y12261D01*
X125796Y11879D01*
X125639Y11479D01*
X125520Y11066D01*
X125440Y10643D01*
X125400Y10215D01*
Y9785D01*
X125440Y9357D01*
X125520Y8934D01*
X125639Y8521D01*
X125796Y8121D01*
X125990Y7737D01*
X126038Y7664D01*
X126097Y7600D01*
X126166Y7547D01*
X126242Y7504D01*
X126324Y7474D01*
X126409Y7458D01*
X126495Y7455D01*
Y0D01*
X123786D01*
Y7524D01*
X123832Y7550D01*
X123900Y7603D01*
X123959Y7667D01*
X124006Y7739D01*
X124204Y8121D01*
X124361Y8521D01*
X124480Y8934D01*
X124560Y9357D01*
X124600Y9785D01*
Y10215D01*
X124560Y10643D01*
X124480Y11066D01*
X124361Y11479D01*
X124204Y11879D01*
X124010Y12263D01*
X123962Y12336D01*
X123903Y12400D01*
X123834Y12453D01*
X123786Y12480D01*
Y144289D01*
G37*
G36*
Y195405D02*X126495Y195409D01*
Y150010D01*
X125951Y149968D01*
X125415Y149839D01*
X124906Y149628D01*
X124436Y149340D01*
X124017Y148983D01*
X123786Y148711D01*
Y195405D01*
G37*
G36*
X120002Y195516D02*X120159Y195451D01*
X120327Y195410D01*
X120500Y195400D01*
X123786Y195405D01*
Y148711D01*
X123660Y148564D01*
X123372Y148094D01*
X123161Y147585D01*
X123032Y147049D01*
X122989Y146500D01*
X123032Y145951D01*
X123161Y145415D01*
X123372Y144906D01*
X123660Y144436D01*
X123786Y144289D01*
Y12480D01*
X123758Y12496D01*
X123676Y12526D01*
X123591Y12542D01*
X123503Y12546D01*
X123417Y12535D01*
X123333Y12511D01*
X123254Y12474D01*
X123182Y12426D01*
X123118Y12366D01*
X123064Y12298D01*
X123022Y12221D01*
X122992Y12140D01*
X122975Y12054D01*
X122972Y11967D01*
X122983Y11880D01*
X123007Y11797D01*
X123045Y11718D01*
X123195Y11428D01*
X123315Y11124D01*
X123405Y10810D01*
X123466Y10489D01*
X123496Y10163D01*
Y9837D01*
X123466Y9511D01*
X123405Y9190D01*
X123315Y8876D01*
X123195Y8572D01*
X123048Y8280D01*
X123010Y8202D01*
X122986Y8119D01*
X122976Y8033D01*
X122979Y7946D01*
X122996Y7861D01*
X123025Y7780D01*
X123067Y7704D01*
X123121Y7636D01*
X123184Y7577D01*
X123256Y7529D01*
X123334Y7493D01*
X123418Y7469D01*
X123504Y7458D01*
X123590Y7461D01*
X123675Y7478D01*
X123756Y7508D01*
X123786Y7524D01*
Y0D01*
X120002D01*
Y5400D01*
X120215D01*
X120643Y5440D01*
X121066Y5520D01*
X121479Y5639D01*
X121879Y5796D01*
X122263Y5990D01*
X122336Y6038D01*
X122400Y6097D01*
X122453Y6166D01*
X122496Y6242D01*
X122526Y6324D01*
X122542Y6409D01*
X122546Y6497D01*
X122535Y6583D01*
X122511Y6667D01*
X122474Y6746D01*
X122426Y6818D01*
X122366Y6882D01*
X122298Y6936D01*
X122221Y6978D01*
X122140Y7008D01*
X122054Y7025D01*
X121967Y7028D01*
X121880Y7017D01*
X121797Y6993D01*
X121718Y6955D01*
X121428Y6805D01*
X121124Y6685D01*
X120810Y6595D01*
X120489Y6534D01*
X120163Y6504D01*
X120002D01*
Y13496D01*
X120163D01*
X120489Y13466D01*
X120810Y13405D01*
X121124Y13315D01*
X121428Y13195D01*
X121720Y13048D01*
X121798Y13010D01*
X121881Y12986D01*
X121967Y12976D01*
X122054Y12979D01*
X122139Y12996D01*
X122220Y13025D01*
X122296Y13067D01*
X122364Y13121D01*
X122423Y13184D01*
X122471Y13256D01*
X122507Y13334D01*
X122531Y13418D01*
X122542Y13504D01*
X122539Y13590D01*
X122522Y13675D01*
X122492Y13756D01*
X122450Y13832D01*
X122397Y13900D01*
X122333Y13959D01*
X122261Y14006D01*
X121879Y14204D01*
X121479Y14361D01*
X121066Y14480D01*
X120643Y14560D01*
X120215Y14600D01*
X120002D01*
Y195516D01*
G37*
G36*
Y210000D02*X126495D01*
Y204599D01*
X120327Y204590D01*
X120159Y204549D01*
X120002Y204484D01*
Y210000D01*
G37*
G36*
X116214D02*X120002D01*
Y204484D01*
X119999Y204483D01*
X119851Y204393D01*
X119720Y204280D01*
X119607Y204149D01*
X119517Y204001D01*
X119451Y203841D01*
X119410Y203673D01*
X119400Y203500D01*
X119410Y196327D01*
X119451Y196159D01*
X119517Y195999D01*
X119607Y195851D01*
X119720Y195720D01*
X119851Y195607D01*
X119999Y195517D01*
X120002Y195516D01*
Y14600D01*
X119785D01*
X119357Y14560D01*
X118934Y14480D01*
X118521Y14361D01*
X118121Y14204D01*
X117737Y14010D01*
X117664Y13962D01*
X117600Y13903D01*
X117547Y13834D01*
X117504Y13758D01*
X117474Y13676D01*
X117458Y13591D01*
X117454Y13503D01*
X117465Y13417D01*
X117489Y13333D01*
X117526Y13254D01*
X117574Y13182D01*
X117634Y13118D01*
X117702Y13064D01*
X117779Y13022D01*
X117860Y12992D01*
X117946Y12975D01*
X118033Y12972D01*
X118120Y12983D01*
X118203Y13007D01*
X118282Y13045D01*
X118572Y13195D01*
X118876Y13315D01*
X119190Y13405D01*
X119511Y13466D01*
X119837Y13496D01*
X120002D01*
Y6504D01*
X119837D01*
X119511Y6534D01*
X119190Y6595D01*
X118876Y6685D01*
X118572Y6805D01*
X118280Y6952D01*
X118202Y6990D01*
X118119Y7014D01*
X118033Y7024D01*
X117946Y7021D01*
X117861Y7004D01*
X117780Y6975D01*
X117704Y6933D01*
X117636Y6879D01*
X117577Y6816D01*
X117529Y6744D01*
X117493Y6666D01*
X117469Y6582D01*
X117458Y6496D01*
X117461Y6410D01*
X117478Y6325D01*
X117508Y6244D01*
X117550Y6168D01*
X117603Y6100D01*
X117667Y6041D01*
X117739Y5994D01*
X118121Y5796D01*
X118521Y5639D01*
X118934Y5520D01*
X119357Y5440D01*
X119785Y5400D01*
X120002D01*
Y0D01*
X116214D01*
Y7520D01*
X116242Y7504D01*
X116324Y7474D01*
X116409Y7458D01*
X116497Y7454D01*
X116583Y7465D01*
X116667Y7489D01*
X116746Y7526D01*
X116818Y7574D01*
X116882Y7634D01*
X116936Y7702D01*
X116978Y7779D01*
X117008Y7860D01*
X117025Y7946D01*
X117028Y8033D01*
X117017Y8120D01*
X116993Y8203D01*
X116955Y8282D01*
X116805Y8572D01*
X116685Y8876D01*
X116595Y9190D01*
X116534Y9511D01*
X116504Y9837D01*
Y10163D01*
X116534Y10489D01*
X116595Y10810D01*
X116685Y11124D01*
X116805Y11428D01*
X116952Y11720D01*
X116990Y11798D01*
X117014Y11881D01*
X117024Y11967D01*
X117021Y12054D01*
X117004Y12139D01*
X116975Y12220D01*
X116933Y12296D01*
X116879Y12364D01*
X116816Y12423D01*
X116744Y12471D01*
X116666Y12507D01*
X116582Y12531D01*
X116496Y12542D01*
X116410Y12539D01*
X116325Y12522D01*
X116244Y12492D01*
X116214Y12476D01*
Y145788D01*
X116483Y146017D01*
X116840Y146436D01*
X117128Y146906D01*
X117339Y147415D01*
X117468Y147951D01*
X117500Y148500D01*
X117468Y149049D01*
X117339Y149585D01*
X117128Y150094D01*
X116840Y150564D01*
X116483Y150983D01*
X116214Y151212D01*
Y195962D01*
X116712Y196267D01*
X117263Y196737D01*
X117733Y197288D01*
X118111Y197905D01*
X118388Y198574D01*
X118557Y199278D01*
X118600Y200000D01*
X118557Y200722D01*
X118388Y201426D01*
X118111Y202095D01*
X117733Y202712D01*
X117263Y203263D01*
X116712Y203733D01*
X116214Y204038D01*
Y210000D01*
G37*
G36*
Y151212D02*X116064Y151340D01*
X115594Y151628D01*
X115085Y151839D01*
X114549Y151968D01*
X114000Y152011D01*
X113995Y152010D01*
Y195386D01*
X114000Y195386D01*
X114722Y195443D01*
X115426Y195612D01*
X116095Y195889D01*
X116214Y195962D01*
Y151212D01*
G37*
G36*
Y0D02*X113995D01*
Y7715D01*
X114111Y7905D01*
X114388Y8574D01*
X114557Y9278D01*
X114600Y10000D01*
X114557Y10722D01*
X114388Y11426D01*
X114111Y12095D01*
X113995Y12285D01*
Y19909D01*
X114000Y20000D01*
X113995Y20091D01*
Y120117D01*
X114064Y120160D01*
X114483Y120517D01*
X114840Y120936D01*
X115128Y121406D01*
X115339Y121915D01*
X115468Y122451D01*
X115500Y123000D01*
X115468Y123549D01*
X115339Y124085D01*
X115128Y124594D01*
X114840Y125064D01*
X114483Y125483D01*
X114064Y125840D01*
X113995Y125883D01*
Y144990D01*
X114000Y144989D01*
X114549Y145032D01*
X115085Y145161D01*
X115594Y145372D01*
X116064Y145660D01*
X116214Y145788D01*
Y12476D01*
X116168Y12450D01*
X116100Y12397D01*
X116041Y12333D01*
X115994Y12261D01*
X115796Y11879D01*
X115639Y11479D01*
X115520Y11066D01*
X115440Y10643D01*
X115400Y10215D01*
Y9785D01*
X115440Y9357D01*
X115520Y8934D01*
X115639Y8521D01*
X115796Y8121D01*
X115990Y7737D01*
X116038Y7664D01*
X116097Y7600D01*
X116166Y7547D01*
X116214Y7520D01*
Y0D01*
G37*
G36*
X113995Y210000D02*X116214D01*
Y204038D01*
X116095Y204111D01*
X115426Y204388D01*
X114722Y204557D01*
X114000Y204614D01*
X113995Y204614D01*
Y210000D01*
G37*
G36*
X107492Y6142D02*X107905Y5889D01*
X108574Y5612D01*
X109278Y5443D01*
X110000Y5386D01*
X110722Y5443D01*
X111426Y5612D01*
X112095Y5889D01*
X112712Y6267D01*
X113263Y6737D01*
X113733Y7288D01*
X113995Y7715D01*
Y0D01*
X107492D01*
Y6142D01*
G37*
G36*
Y16881D02*X107642Y16754D01*
X108178Y16425D01*
X108760Y16184D01*
X109372Y16037D01*
X110000Y15988D01*
X110628Y16037D01*
X111240Y16184D01*
X111822Y16425D01*
X112358Y16754D01*
X112837Y17163D01*
X113246Y17642D01*
X113575Y18178D01*
X113816Y18760D01*
X113963Y19372D01*
X113995Y19909D01*
Y12285D01*
X113733Y12712D01*
X113263Y13263D01*
X112712Y13733D01*
X112095Y14111D01*
X111426Y14388D01*
X110722Y14557D01*
X110000Y14614D01*
X109278Y14557D01*
X108574Y14388D01*
X107905Y14111D01*
X107492Y13858D01*
Y16881D01*
G37*
G36*
X111551Y119525D02*X112000Y119489D01*
X112549Y119532D01*
X113085Y119661D01*
X113594Y119872D01*
X113995Y120117D01*
Y20091D01*
X113963Y20628D01*
X113816Y21240D01*
X113575Y21822D01*
X113246Y22358D01*
X112837Y22837D01*
X112358Y23246D01*
X111822Y23575D01*
X111551Y23687D01*
Y57494D01*
X111619Y57513D01*
X111726Y57562D01*
X111824Y57628D01*
X111911Y57708D01*
X111984Y57801D01*
X112040Y57904D01*
X112225Y58348D01*
X112362Y58809D01*
X112454Y59281D01*
X112500Y59760D01*
Y60240D01*
X112454Y60719D01*
X112362Y61191D01*
X112225Y61652D01*
X112045Y62098D01*
X111987Y62202D01*
X111914Y62295D01*
X111827Y62375D01*
X111728Y62441D01*
X111620Y62491D01*
X111551Y62510D01*
Y67045D01*
X111558Y67052D01*
X111969Y67723D01*
X112270Y68450D01*
X112454Y69215D01*
X112500Y70000D01*
X112454Y70785D01*
X112270Y71550D01*
X111969Y72277D01*
X111558Y72948D01*
X111551Y72955D01*
Y75105D01*
X111683Y75159D01*
X111884Y75283D01*
X112064Y75436D01*
X112217Y75616D01*
X112341Y75817D01*
X112431Y76035D01*
X112486Y76265D01*
X112500Y76500D01*
X112486Y83735D01*
X112431Y83965D01*
X112341Y84183D01*
X112217Y84384D01*
X112064Y84564D01*
X111884Y84717D01*
X111683Y84841D01*
X111551Y84895D01*
Y119525D01*
G37*
G36*
Y145988D02*X111936Y145660D01*
X112406Y145372D01*
X112915Y145161D01*
X113451Y145032D01*
X113995Y144990D01*
Y125883D01*
X113594Y126128D01*
X113085Y126339D01*
X112549Y126468D01*
X112000Y126511D01*
X111551Y126475D01*
Y145988D01*
G37*
G36*
Y196105D02*X111905Y195889D01*
X112574Y195612D01*
X113278Y195443D01*
X113995Y195386D01*
Y152010D01*
X113451Y151968D01*
X112915Y151839D01*
X112406Y151628D01*
X111936Y151340D01*
X111551Y151012D01*
Y196105D01*
G37*
G36*
Y210000D02*X113995D01*
Y204614D01*
X113278Y204557D01*
X112574Y204388D01*
X111905Y204111D01*
X111551Y203895D01*
Y210000D01*
G37*
G36*
Y72955D02*X111046Y73546D01*
X110448Y74058D01*
X109777Y74469D01*
X109050Y74770D01*
X108285Y74954D01*
X107608Y75007D01*
X111235Y75014D01*
X111465Y75069D01*
X111551Y75105D01*
Y72955D01*
G37*
G36*
Y23687D02*X111240Y23816D01*
X110628Y23963D01*
X110000Y24012D01*
X109372Y23963D01*
X108760Y23816D01*
X108178Y23575D01*
X107642Y23246D01*
X107492Y23119D01*
Y55000D01*
X107740D01*
X108219Y55046D01*
X108691Y55138D01*
X109152Y55275D01*
X109598Y55455D01*
X109702Y55513D01*
X109795Y55586D01*
X109875Y55673D01*
X109941Y55772D01*
X109991Y55880D01*
X110023Y55994D01*
X110037Y56112D01*
X110032Y56231D01*
X110009Y56347D01*
X109968Y56458D01*
X109910Y56562D01*
X109836Y56655D01*
X109749Y56735D01*
X109650Y56801D01*
X109543Y56851D01*
X109428Y56883D01*
X109311Y56897D01*
X109192Y56892D01*
X109076Y56869D01*
X108965Y56826D01*
X108655Y56696D01*
X108333Y56601D01*
X108003Y56536D01*
X107668Y56504D01*
X107492D01*
Y63496D01*
X107668D01*
X108003Y63464D01*
X108333Y63399D01*
X108655Y63304D01*
X108967Y63178D01*
X109077Y63135D01*
X109192Y63112D01*
X109310Y63107D01*
X109428Y63121D01*
X109541Y63153D01*
X109648Y63202D01*
X109747Y63268D01*
X109833Y63348D01*
X109907Y63440D01*
X109964Y63543D01*
X110005Y63654D01*
X110028Y63770D01*
X110033Y63888D01*
X110019Y64005D01*
X109987Y64119D01*
X109938Y64226D01*
X109872Y64324D01*
X109792Y64411D01*
X109699Y64484D01*
X109596Y64540D01*
X109152Y64725D01*
X108691Y64862D01*
X108219Y64954D01*
X107740Y65000D01*
X107696D01*
X108285Y65046D01*
X109050Y65230D01*
X109777Y65531D01*
X110448Y65942D01*
X111046Y66454D01*
X111551Y67045D01*
Y62510D01*
X111506Y62523D01*
X111388Y62537D01*
X111269Y62532D01*
X111153Y62509D01*
X111042Y62468D01*
X110938Y62410D01*
X110845Y62336D01*
X110765Y62249D01*
X110699Y62150D01*
X110649Y62043D01*
X110617Y61928D01*
X110603Y61811D01*
X110608Y61692D01*
X110631Y61576D01*
X110674Y61465D01*
X110804Y61155D01*
X110899Y60833D01*
X110964Y60503D01*
X110996Y60168D01*
Y59832D01*
X110964Y59497D01*
X110899Y59167D01*
X110804Y58845D01*
X110678Y58533D01*
X110635Y58423D01*
X110612Y58308D01*
X110607Y58190D01*
X110621Y58072D01*
X110653Y57959D01*
X110702Y57852D01*
X110768Y57753D01*
X110848Y57667D01*
X110940Y57593D01*
X111043Y57536D01*
X111154Y57495D01*
X111270Y57472D01*
X111388Y57467D01*
X111505Y57481D01*
X111551Y57494D01*
Y23687D01*
G37*
G36*
X107492Y210000D02*X111551D01*
Y203895D01*
X111288Y203733D01*
X110737Y203263D01*
X110267Y202712D01*
X109889Y202095D01*
X109612Y201426D01*
X109443Y200722D01*
X109386Y200000D01*
X109443Y199278D01*
X109612Y198574D01*
X109889Y197905D01*
X110267Y197288D01*
X110737Y196737D01*
X111288Y196267D01*
X111551Y196105D01*
Y151012D01*
X111517Y150983D01*
X111160Y150564D01*
X110872Y150094D01*
X110661Y149585D01*
X110532Y149049D01*
X110489Y148500D01*
X110532Y147951D01*
X110661Y147415D01*
X110872Y146906D01*
X111160Y146436D01*
X111517Y146017D01*
X111551Y145988D01*
Y126475D01*
X111451Y126468D01*
X110915Y126339D01*
X110406Y126128D01*
X109936Y125840D01*
X109517Y125483D01*
X109160Y125064D01*
X108872Y124594D01*
X108661Y124085D01*
X108532Y123549D01*
X108489Y123000D01*
X108532Y122451D01*
X108661Y121915D01*
X108872Y121406D01*
X109160Y120936D01*
X109517Y120517D01*
X109936Y120160D01*
X110406Y119872D01*
X110915Y119661D01*
X111451Y119532D01*
X111551Y119525D01*
Y84895D01*
X111465Y84931D01*
X111235Y84986D01*
X111000Y85000D01*
X107492Y84993D01*
Y197006D01*
X107733Y197288D01*
X108111Y197905D01*
X108388Y198574D01*
X108557Y199278D01*
X108600Y200000D01*
X108557Y200722D01*
X108388Y201426D01*
X108111Y202095D01*
X107733Y202712D01*
X107492Y202994D01*
Y210000D01*
G37*
G36*
X103449Y67045D02*X103954Y66454D01*
X104552Y65942D01*
X105223Y65531D01*
X105950Y65230D01*
X106715Y65046D01*
X107304Y65000D01*
X107260D01*
X106781Y64954D01*
X106309Y64862D01*
X105848Y64725D01*
X105402Y64545D01*
X105298Y64487D01*
X105205Y64414D01*
X105125Y64327D01*
X105059Y64228D01*
X105009Y64120D01*
X104977Y64006D01*
X104963Y63888D01*
X104968Y63769D01*
X104991Y63653D01*
X105032Y63542D01*
X105090Y63438D01*
X105164Y63345D01*
X105251Y63265D01*
X105350Y63199D01*
X105457Y63149D01*
X105572Y63117D01*
X105689Y63103D01*
X105808Y63108D01*
X105924Y63131D01*
X106035Y63174D01*
X106345Y63304D01*
X106667Y63399D01*
X106997Y63464D01*
X107332Y63496D01*
X107492D01*
Y56504D01*
X107332D01*
X106997Y56536D01*
X106667Y56601D01*
X106345Y56696D01*
X106033Y56822D01*
X105923Y56865D01*
X105808Y56888D01*
X105690Y56893D01*
X105572Y56879D01*
X105459Y56847D01*
X105352Y56798D01*
X105253Y56732D01*
X105167Y56652D01*
X105093Y56560D01*
X105036Y56457D01*
X104995Y56346D01*
X104972Y56230D01*
X104967Y56112D01*
X104981Y55995D01*
X105013Y55881D01*
X105062Y55774D01*
X105128Y55676D01*
X105208Y55589D01*
X105301Y55516D01*
X105404Y55460D01*
X105848Y55275D01*
X106309Y55138D01*
X106781Y55046D01*
X107260Y55000D01*
X107492D01*
Y23119D01*
X107163Y22837D01*
X106754Y22358D01*
X106425Y21822D01*
X106184Y21240D01*
X106037Y20628D01*
X105988Y20000D01*
X106037Y19372D01*
X106184Y18760D01*
X106425Y18178D01*
X106754Y17642D01*
X107163Y17163D01*
X107492Y16881D01*
Y13858D01*
X107288Y13733D01*
X106737Y13263D01*
X106267Y12712D01*
X105889Y12095D01*
X105612Y11426D01*
X105443Y10722D01*
X105386Y10000D01*
X105443Y9278D01*
X105612Y8574D01*
X105889Y7905D01*
X106267Y7288D01*
X106737Y6737D01*
X107288Y6267D01*
X107492Y6142D01*
Y0D01*
X103449D01*
Y6955D01*
X103733Y7288D01*
X104111Y7905D01*
X104388Y8574D01*
X104557Y9278D01*
X104600Y10000D01*
X104557Y10722D01*
X104388Y11426D01*
X104111Y12095D01*
X103733Y12712D01*
X103449Y13045D01*
Y57490D01*
X103494Y57477D01*
X103612Y57463D01*
X103731Y57468D01*
X103847Y57491D01*
X103958Y57532D01*
X104062Y57590D01*
X104155Y57664D01*
X104235Y57751D01*
X104301Y57850D01*
X104351Y57957D01*
X104383Y58072D01*
X104397Y58189D01*
X104392Y58308D01*
X104369Y58424D01*
X104326Y58535D01*
X104196Y58845D01*
X104101Y59167D01*
X104036Y59497D01*
X104004Y59832D01*
Y60168D01*
X104036Y60503D01*
X104101Y60833D01*
X104196Y61155D01*
X104322Y61467D01*
X104365Y61577D01*
X104388Y61692D01*
X104393Y61810D01*
X104379Y61928D01*
X104347Y62041D01*
X104298Y62148D01*
X104232Y62247D01*
X104152Y62333D01*
X104060Y62407D01*
X103957Y62464D01*
X103846Y62505D01*
X103730Y62528D01*
X103612Y62533D01*
X103495Y62519D01*
X103449Y62506D01*
Y67045D01*
G37*
G36*
Y75105D02*X103535Y75069D01*
X103765Y75014D01*
X104000Y75000D01*
X107387Y75007D01*
X106715Y74954D01*
X105950Y74770D01*
X105223Y74469D01*
X104552Y74058D01*
X103954Y73546D01*
X103449Y72955D01*
Y75105D01*
G37*
G36*
Y195429D02*X104000Y195386D01*
X104722Y195443D01*
X105426Y195612D01*
X106095Y195889D01*
X106712Y196267D01*
X107263Y196737D01*
X107492Y197006D01*
Y84993D01*
X103765Y84986D01*
X103535Y84931D01*
X103449Y84895D01*
Y195429D01*
G37*
G36*
Y210000D02*X107492D01*
Y202994D01*
X107263Y203263D01*
X106712Y203733D01*
X106095Y204111D01*
X105426Y204388D01*
X104722Y204557D01*
X104000Y204614D01*
X103449Y204571D01*
Y210000D01*
G37*
G36*
X89993D02*X103449D01*
Y204571D01*
X103278Y204557D01*
X102574Y204388D01*
X101905Y204111D01*
X101288Y203733D01*
X100737Y203263D01*
X100267Y202712D01*
X99889Y202095D01*
X99612Y201426D01*
X99443Y200722D01*
X99386Y200000D01*
X99443Y199278D01*
X99612Y198574D01*
X99889Y197905D01*
X100267Y197288D01*
X100737Y196737D01*
X101288Y196267D01*
X101905Y195889D01*
X102574Y195612D01*
X103278Y195443D01*
X103449Y195429D01*
Y84895D01*
X103317Y84841D01*
X103116Y84717D01*
X102936Y84564D01*
X102783Y84384D01*
X102659Y84183D01*
X102569Y83965D01*
X102514Y83735D01*
X102500Y83500D01*
X102514Y76265D01*
X102569Y76035D01*
X102659Y75817D01*
X102783Y75616D01*
X102936Y75436D01*
X103116Y75283D01*
X103317Y75159D01*
X103449Y75105D01*
Y72955D01*
X103442Y72948D01*
X103031Y72277D01*
X102730Y71550D01*
X102546Y70785D01*
X102485Y70000D01*
X102546Y69215D01*
X102730Y68450D01*
X103031Y67723D01*
X103442Y67052D01*
X103449Y67045D01*
Y62506D01*
X103381Y62487D01*
X103274Y62438D01*
X103176Y62372D01*
X103089Y62292D01*
X103016Y62199D01*
X102960Y62096D01*
X102775Y61652D01*
X102638Y61191D01*
X102546Y60719D01*
X102500Y60240D01*
Y59760D01*
X102546Y59281D01*
X102638Y58809D01*
X102775Y58348D01*
X102955Y57902D01*
X103013Y57798D01*
X103086Y57705D01*
X103173Y57625D01*
X103272Y57559D01*
X103380Y57509D01*
X103449Y57490D01*
Y13045D01*
X103263Y13263D01*
X102712Y13733D01*
X102095Y14111D01*
X101426Y14388D01*
X100722Y14557D01*
X100000Y14614D01*
X99278Y14557D01*
X98574Y14388D01*
X97905Y14111D01*
X97288Y13733D01*
X96737Y13263D01*
X96267Y12712D01*
X95889Y12095D01*
X95612Y11426D01*
X95443Y10722D01*
X95386Y10000D01*
X95443Y9278D01*
X95612Y8574D01*
X95889Y7905D01*
X96267Y7288D01*
X96737Y6737D01*
X97288Y6267D01*
X97905Y5889D01*
X98574Y5612D01*
X99278Y5443D01*
X100000Y5386D01*
X100722Y5443D01*
X101426Y5612D01*
X102095Y5889D01*
X102712Y6267D01*
X103263Y6737D01*
X103449Y6955D01*
Y0D01*
X89993D01*
Y5386D01*
X90000Y5386D01*
X90722Y5443D01*
X91426Y5612D01*
X92095Y5889D01*
X92712Y6267D01*
X93263Y6737D01*
X93733Y7288D01*
X94111Y7905D01*
X94388Y8574D01*
X94557Y9278D01*
X94600Y10000D01*
X94557Y10722D01*
X94388Y11426D01*
X94111Y12095D01*
X93733Y12712D01*
X93263Y13263D01*
X92712Y13733D01*
X92095Y14111D01*
X91426Y14388D01*
X90722Y14557D01*
X90000Y14614D01*
X89993Y14614D01*
Y197735D01*
X90267Y197288D01*
X90737Y196737D01*
X91288Y196267D01*
X91905Y195889D01*
X92574Y195612D01*
X93278Y195443D01*
X94000Y195386D01*
X94722Y195443D01*
X95426Y195612D01*
X96095Y195889D01*
X96712Y196267D01*
X97263Y196737D01*
X97733Y197288D01*
X98111Y197905D01*
X98388Y198574D01*
X98557Y199278D01*
X98600Y200000D01*
X98557Y200722D01*
X98388Y201426D01*
X98111Y202095D01*
X97733Y202712D01*
X97263Y203263D01*
X96712Y203733D01*
X96095Y204111D01*
X95426Y204388D01*
X94722Y204557D01*
X94000Y204614D01*
X93278Y204557D01*
X92574Y204388D01*
X91905Y204111D01*
X91288Y203733D01*
X90737Y203263D01*
X90267Y202712D01*
X89993Y202265D01*
Y210000D01*
G37*
G36*
X84995D02*X89993D01*
Y202265D01*
X89889Y202095D01*
X89612Y201426D01*
X89443Y200722D01*
X89386Y200000D01*
X89443Y199278D01*
X89612Y198574D01*
X89889Y197905D01*
X89993Y197735D01*
Y14614D01*
X89278Y14557D01*
X88574Y14388D01*
X87905Y14111D01*
X87288Y13733D01*
X86737Y13263D01*
X86267Y12712D01*
X85889Y12095D01*
X85612Y11426D01*
X85443Y10722D01*
X85386Y10000D01*
X85443Y9278D01*
X85612Y8574D01*
X85889Y7905D01*
X86267Y7288D01*
X86737Y6737D01*
X87288Y6267D01*
X87905Y5889D01*
X88574Y5612D01*
X89278Y5443D01*
X89993Y5386D01*
Y0D01*
X84995D01*
Y172990D01*
X85000Y172989D01*
X85549Y173032D01*
X86085Y173161D01*
X86594Y173372D01*
X87064Y173660D01*
X87483Y174017D01*
X87840Y174436D01*
X88128Y174906D01*
X88339Y175415D01*
X88468Y175951D01*
X88500Y176500D01*
X88468Y177049D01*
X88339Y177585D01*
X88128Y178094D01*
X87840Y178564D01*
X87483Y178983D01*
X87064Y179340D01*
X86594Y179628D01*
X86085Y179839D01*
X85549Y179968D01*
X85000Y180011D01*
X84995Y180010D01*
Y195508D01*
X85426Y195612D01*
X86095Y195889D01*
X86712Y196267D01*
X87263Y196737D01*
X87733Y197288D01*
X88111Y197905D01*
X88388Y198574D01*
X88557Y199278D01*
X88600Y200000D01*
X88557Y200722D01*
X88388Y201426D01*
X88111Y202095D01*
X87733Y202712D01*
X87263Y203263D01*
X86712Y203733D01*
X86095Y204111D01*
X85426Y204388D01*
X84995Y204492D01*
Y210000D01*
G37*
G36*
X75495D02*X84995D01*
Y204492D01*
X84722Y204557D01*
X84000Y204614D01*
X83278Y204557D01*
X82574Y204388D01*
X81905Y204111D01*
X81288Y203733D01*
X80737Y203263D01*
X80267Y202712D01*
X79889Y202095D01*
X79612Y201426D01*
X79443Y200722D01*
X79386Y200000D01*
X79443Y199278D01*
X79612Y198574D01*
X79889Y197905D01*
X80267Y197288D01*
X80737Y196737D01*
X81288Y196267D01*
X81905Y195889D01*
X82574Y195612D01*
X83278Y195443D01*
X84000Y195386D01*
X84722Y195443D01*
X84995Y195508D01*
Y180010D01*
X84451Y179968D01*
X83915Y179839D01*
X83406Y179628D01*
X82936Y179340D01*
X82517Y178983D01*
X82160Y178564D01*
X81872Y178094D01*
X81661Y177585D01*
X81532Y177049D01*
X81489Y176500D01*
X81532Y175951D01*
X81661Y175415D01*
X81872Y174906D01*
X82160Y174436D01*
X82517Y174017D01*
X82936Y173660D01*
X83406Y173372D01*
X83915Y173161D01*
X84451Y173032D01*
X84995Y172990D01*
Y0D01*
X75495D01*
Y9062D01*
X75612Y8574D01*
X75889Y7905D01*
X76267Y7288D01*
X76737Y6737D01*
X77288Y6267D01*
X77905Y5889D01*
X78574Y5612D01*
X79278Y5443D01*
X80000Y5386D01*
X80722Y5443D01*
X81426Y5612D01*
X82095Y5889D01*
X82712Y6267D01*
X83263Y6737D01*
X83733Y7288D01*
X84111Y7905D01*
X84388Y8574D01*
X84557Y9278D01*
X84600Y10000D01*
X84557Y10722D01*
X84388Y11426D01*
X84111Y12095D01*
X83733Y12712D01*
X83263Y13263D01*
X82712Y13733D01*
X82095Y14111D01*
X81426Y14388D01*
X80722Y14557D01*
X80000Y14614D01*
X79278Y14557D01*
X78574Y14388D01*
X77905Y14111D01*
X77288Y13733D01*
X76737Y13263D01*
X76267Y12712D01*
X75889Y12095D01*
X75612Y11426D01*
X75495Y10938D01*
Y107990D01*
X75500Y107989D01*
X76049Y108032D01*
X76585Y108161D01*
X77094Y108372D01*
X77564Y108660D01*
X77983Y109017D01*
X78340Y109436D01*
X78628Y109906D01*
X78839Y110415D01*
X78968Y110951D01*
X79000Y111500D01*
X78968Y112049D01*
X78839Y112585D01*
X78628Y113094D01*
X78340Y113564D01*
X77983Y113983D01*
X77564Y114340D01*
X77094Y114628D01*
X76585Y114839D01*
X76049Y114968D01*
X75500Y115011D01*
X75495Y115010D01*
Y195640D01*
X76095Y195889D01*
X76712Y196267D01*
X77263Y196737D01*
X77733Y197288D01*
X78111Y197905D01*
X78388Y198574D01*
X78557Y199278D01*
X78600Y200000D01*
X78557Y200722D01*
X78388Y201426D01*
X78111Y202095D01*
X77733Y202712D01*
X77263Y203263D01*
X76712Y203733D01*
X76095Y204111D01*
X75495Y204360D01*
Y210000D01*
G37*
G36*
X70000Y197724D02*X70267Y197288D01*
X70737Y196737D01*
X71288Y196267D01*
X71905Y195889D01*
X72574Y195612D01*
X73278Y195443D01*
X74000Y195386D01*
X74722Y195443D01*
X75426Y195612D01*
X75495Y195640D01*
Y115010D01*
X74951Y114968D01*
X74415Y114839D01*
X73906Y114628D01*
X73436Y114340D01*
X73017Y113983D01*
X72660Y113564D01*
X72372Y113094D01*
X72161Y112585D01*
X72032Y112049D01*
X71989Y111500D01*
X72032Y110951D01*
X72161Y110415D01*
X72372Y109906D01*
X72660Y109436D01*
X73017Y109017D01*
X73436Y108660D01*
X73906Y108372D01*
X74415Y108161D01*
X74951Y108032D01*
X75495Y107990D01*
Y10938D01*
X75443Y10722D01*
X75386Y10000D01*
X75443Y9278D01*
X75495Y9062D01*
Y0D01*
X70000D01*
Y5405D01*
X73673Y5410D01*
X73841Y5451D01*
X74001Y5517D01*
X74149Y5607D01*
X74280Y5720D01*
X74393Y5851D01*
X74483Y5999D01*
X74549Y6159D01*
X74590Y6327D01*
X74600Y6500D01*
X74590Y13673D01*
X74549Y13841D01*
X74483Y14001D01*
X74393Y14149D01*
X74280Y14280D01*
X74149Y14393D01*
X74001Y14483D01*
X73841Y14549D01*
X73673Y14590D01*
X73500Y14600D01*
X70000Y14595D01*
Y197724D01*
G37*
G36*
Y210000D02*X75495D01*
Y204360D01*
X75426Y204388D01*
X74722Y204557D01*
X74000Y204614D01*
X73278Y204557D01*
X72574Y204388D01*
X71905Y204111D01*
X71288Y203733D01*
X70737Y203263D01*
X70267Y202712D01*
X70000Y202276D01*
Y210000D01*
G37*
G36*
X63993D02*X70000D01*
Y202276D01*
X69889Y202095D01*
X69612Y201426D01*
X69443Y200722D01*
X69386Y200000D01*
X69443Y199278D01*
X69612Y198574D01*
X69889Y197905D01*
X70000Y197724D01*
Y14595D01*
X66327Y14590D01*
X66159Y14549D01*
X65999Y14483D01*
X65851Y14393D01*
X65720Y14280D01*
X65607Y14149D01*
X65517Y14001D01*
X65451Y13841D01*
X65410Y13673D01*
X65400Y13500D01*
X65410Y6327D01*
X65451Y6159D01*
X65517Y5999D01*
X65607Y5851D01*
X65720Y5720D01*
X65851Y5607D01*
X65999Y5517D01*
X66159Y5451D01*
X66327Y5410D01*
X66500Y5400D01*
X70000Y5405D01*
Y0D01*
X63993D01*
Y195386D01*
X64000Y195386D01*
X64722Y195443D01*
X65426Y195612D01*
X66095Y195889D01*
X66712Y196267D01*
X67263Y196737D01*
X67733Y197288D01*
X68111Y197905D01*
X68388Y198574D01*
X68557Y199278D01*
X68600Y200000D01*
X68557Y200722D01*
X68388Y201426D01*
X68111Y202095D01*
X67733Y202712D01*
X67263Y203263D01*
X66712Y203733D01*
X66095Y204111D01*
X65426Y204388D01*
X64722Y204557D01*
X64000Y204614D01*
X63993Y204614D01*
Y210000D01*
G37*
G36*
X56495D02*X63993D01*
Y204614D01*
X63278Y204557D01*
X62574Y204388D01*
X61905Y204111D01*
X61288Y203733D01*
X60737Y203263D01*
X60267Y202712D01*
X59889Y202095D01*
X59612Y201426D01*
X59443Y200722D01*
X59386Y200000D01*
X59443Y199278D01*
X59612Y198574D01*
X59889Y197905D01*
X60267Y197288D01*
X60737Y196737D01*
X61288Y196267D01*
X61905Y195889D01*
X62574Y195612D01*
X63278Y195443D01*
X63993Y195386D01*
Y0D01*
X56495D01*
Y6642D01*
X56951Y6532D01*
X57500Y6489D01*
X58049Y6532D01*
X58585Y6661D01*
X59094Y6872D01*
X59564Y7160D01*
X59983Y7517D01*
X60340Y7936D01*
X60628Y8406D01*
X60839Y8915D01*
X60968Y9451D01*
X61000Y10000D01*
X60968Y10549D01*
X60839Y11085D01*
X60628Y11594D01*
X60340Y12064D01*
X59983Y12483D01*
X59564Y12840D01*
X59094Y13128D01*
X58585Y13339D01*
X58049Y13468D01*
X57500Y13511D01*
X56951Y13468D01*
X56495Y13358D01*
Y83642D01*
X56951Y83532D01*
X57500Y83489D01*
X58049Y83532D01*
X58585Y83661D01*
X59094Y83872D01*
X59564Y84160D01*
X59983Y84517D01*
X60340Y84936D01*
X60628Y85406D01*
X60839Y85915D01*
X60968Y86451D01*
X61000Y87000D01*
X60968Y87549D01*
X60839Y88085D01*
X60628Y88594D01*
X60340Y89064D01*
X59983Y89483D01*
X59564Y89840D01*
X59094Y90128D01*
X58800Y90250D01*
X59094Y90372D01*
X59564Y90660D01*
X59983Y91017D01*
X60340Y91436D01*
X60628Y91906D01*
X60839Y92415D01*
X60968Y92951D01*
X61000Y93500D01*
X60968Y94049D01*
X60839Y94585D01*
X60628Y95094D01*
X60340Y95564D01*
X59983Y95983D01*
X59564Y96340D01*
X59303Y96500D01*
X59564Y96660D01*
X59983Y97017D01*
X60340Y97436D01*
X60628Y97906D01*
X60839Y98415D01*
X60968Y98951D01*
X61000Y99500D01*
X60968Y100049D01*
X60839Y100585D01*
X60628Y101094D01*
X60340Y101564D01*
X59983Y101983D01*
X59564Y102340D01*
X59094Y102628D01*
X58585Y102839D01*
X58049Y102968D01*
X57500Y103011D01*
X56951Y102968D01*
X56495Y102858D01*
Y178990D01*
X56500Y178989D01*
X57049Y179032D01*
X57585Y179161D01*
X58094Y179372D01*
X58564Y179660D01*
X58983Y180017D01*
X59340Y180436D01*
X59628Y180906D01*
X59839Y181415D01*
X59968Y181951D01*
X60000Y182500D01*
X59968Y183049D01*
X59839Y183585D01*
X59628Y184094D01*
X59340Y184564D01*
X58983Y184983D01*
X58564Y185340D01*
X58094Y185628D01*
X57585Y185839D01*
X57049Y185968D01*
X56500Y186011D01*
X56495Y186010D01*
Y196134D01*
X56712Y196267D01*
X57263Y196737D01*
X57733Y197288D01*
X58111Y197905D01*
X58388Y198574D01*
X58557Y199278D01*
X58600Y200000D01*
X58557Y200722D01*
X58388Y201426D01*
X58111Y202095D01*
X57733Y202712D01*
X57263Y203263D01*
X56712Y203733D01*
X56495Y203866D01*
Y210000D01*
G37*
G36*
X46995D02*X56495D01*
Y203866D01*
X56095Y204111D01*
X55426Y204388D01*
X54722Y204557D01*
X54000Y204614D01*
X53278Y204557D01*
X52574Y204388D01*
X51905Y204111D01*
X51288Y203733D01*
X50737Y203263D01*
X50267Y202712D01*
X49889Y202095D01*
X49612Y201426D01*
X49443Y200722D01*
X49386Y200000D01*
X49443Y199278D01*
X49612Y198574D01*
X49889Y197905D01*
X50267Y197288D01*
X50737Y196737D01*
X51288Y196267D01*
X51905Y195889D01*
X52574Y195612D01*
X53278Y195443D01*
X54000Y195386D01*
X54722Y195443D01*
X55426Y195612D01*
X56095Y195889D01*
X56495Y196134D01*
Y186010D01*
X55951Y185968D01*
X55415Y185839D01*
X54906Y185628D01*
X54436Y185340D01*
X54017Y184983D01*
X53660Y184564D01*
X53372Y184094D01*
X53161Y183585D01*
X53032Y183049D01*
X52989Y182500D01*
X53032Y181951D01*
X53161Y181415D01*
X53372Y180906D01*
X53660Y180436D01*
X54017Y180017D01*
X54436Y179660D01*
X54906Y179372D01*
X55415Y179161D01*
X55951Y179032D01*
X56495Y178990D01*
Y102858D01*
X56415Y102839D01*
X55906Y102628D01*
X55436Y102340D01*
X55017Y101983D01*
X54660Y101564D01*
X54372Y101094D01*
X54161Y100585D01*
X54032Y100049D01*
X53989Y99500D01*
X54032Y98951D01*
X54161Y98415D01*
X54372Y97906D01*
X54660Y97436D01*
X55017Y97017D01*
X55436Y96660D01*
X55697Y96500D01*
X55436Y96340D01*
X55017Y95983D01*
X54660Y95564D01*
X54372Y95094D01*
X54161Y94585D01*
X54032Y94049D01*
X53989Y93500D01*
X54032Y92951D01*
X54161Y92415D01*
X54372Y91906D01*
X54660Y91436D01*
X55017Y91017D01*
X55436Y90660D01*
X55906Y90372D01*
X56200Y90250D01*
X55906Y90128D01*
X55436Y89840D01*
X55017Y89483D01*
X54660Y89064D01*
X54372Y88594D01*
X54161Y88085D01*
X54032Y87549D01*
X53989Y87000D01*
X54032Y86451D01*
X54161Y85915D01*
X54372Y85406D01*
X54660Y84936D01*
X55017Y84517D01*
X55436Y84160D01*
X55906Y83872D01*
X56415Y83661D01*
X56495Y83642D01*
Y13358D01*
X56415Y13339D01*
X55906Y13128D01*
X55436Y12840D01*
X55017Y12483D01*
X54660Y12064D01*
X54372Y11594D01*
X54161Y11085D01*
X54032Y10549D01*
X53989Y10000D01*
X54032Y9451D01*
X54161Y8915D01*
X54372Y8406D01*
X54660Y7936D01*
X55017Y7517D01*
X55436Y7160D01*
X55906Y6872D01*
X56415Y6661D01*
X56495Y6642D01*
Y0D01*
X46995D01*
Y16529D01*
X47500Y16489D01*
X48049Y16532D01*
X48585Y16661D01*
X49094Y16872D01*
X49564Y17160D01*
X49983Y17517D01*
X50340Y17936D01*
X50628Y18406D01*
X50839Y18915D01*
X50968Y19451D01*
X51000Y20000D01*
X50968Y20549D01*
X50839Y21085D01*
X50628Y21594D01*
X50340Y22064D01*
X49983Y22483D01*
X49564Y22840D01*
X49094Y23128D01*
X48585Y23339D01*
X48049Y23468D01*
X47500Y23511D01*
X46995Y23471D01*
Y125990D01*
X47000Y125989D01*
X47549Y126032D01*
X48085Y126161D01*
X48594Y126372D01*
X49064Y126660D01*
X49483Y127017D01*
X49840Y127436D01*
X50128Y127906D01*
X50339Y128415D01*
X50468Y128951D01*
X50500Y129500D01*
X50468Y130049D01*
X50339Y130585D01*
X50128Y131094D01*
X49840Y131564D01*
X49483Y131983D01*
X49064Y132340D01*
X48803Y132500D01*
X49064Y132660D01*
X49483Y133017D01*
X49840Y133436D01*
X50128Y133906D01*
X50339Y134415D01*
X50468Y134951D01*
X50500Y135500D01*
X50468Y136049D01*
X50339Y136585D01*
X50128Y137094D01*
X49840Y137564D01*
X49483Y137983D01*
X49064Y138340D01*
X48594Y138628D01*
X48085Y138839D01*
X47549Y138968D01*
X47000Y139011D01*
X46995Y139010D01*
Y144490D01*
X47000Y144489D01*
X47549Y144532D01*
X48085Y144661D01*
X48594Y144872D01*
X49064Y145160D01*
X49483Y145517D01*
X49840Y145936D01*
X50128Y146406D01*
X50339Y146915D01*
X50468Y147451D01*
X50500Y148000D01*
X50468Y148549D01*
X50339Y149085D01*
X50128Y149594D01*
X49840Y150064D01*
X49483Y150483D01*
X49064Y150840D01*
X48594Y151128D01*
X48085Y151339D01*
X47549Y151468D01*
X47000Y151511D01*
X46995Y151510D01*
Y196508D01*
X47263Y196737D01*
X47733Y197288D01*
X48111Y197905D01*
X48388Y198574D01*
X48557Y199278D01*
X48600Y200000D01*
X48557Y200722D01*
X48388Y201426D01*
X48111Y202095D01*
X47733Y202712D01*
X47263Y203263D01*
X46995Y203492D01*
Y210000D01*
G37*
G36*
X32995D02*X46995D01*
Y203492D01*
X46712Y203733D01*
X46095Y204111D01*
X45426Y204388D01*
X44722Y204557D01*
X44000Y204614D01*
X43278Y204557D01*
X42574Y204388D01*
X41905Y204111D01*
X41288Y203733D01*
X40737Y203263D01*
X40267Y202712D01*
X39889Y202095D01*
X39612Y201426D01*
X39443Y200722D01*
X39386Y200000D01*
X39443Y199278D01*
X39612Y198574D01*
X39889Y197905D01*
X40267Y197288D01*
X40737Y196737D01*
X41288Y196267D01*
X41905Y195889D01*
X42574Y195612D01*
X43278Y195443D01*
X44000Y195386D01*
X44722Y195443D01*
X45426Y195612D01*
X46095Y195889D01*
X46712Y196267D01*
X46995Y196508D01*
Y151510D01*
X46451Y151468D01*
X45915Y151339D01*
X45406Y151128D01*
X44936Y150840D01*
X44517Y150483D01*
X44160Y150064D01*
X43872Y149594D01*
X43661Y149085D01*
X43532Y148549D01*
X43489Y148000D01*
X43532Y147451D01*
X43661Y146915D01*
X43872Y146406D01*
X44160Y145936D01*
X44517Y145517D01*
X44936Y145160D01*
X45406Y144872D01*
X45915Y144661D01*
X46451Y144532D01*
X46995Y144490D01*
Y139010D01*
X46451Y138968D01*
X45915Y138839D01*
X45406Y138628D01*
X44936Y138340D01*
X44517Y137983D01*
X44160Y137564D01*
X43872Y137094D01*
X43661Y136585D01*
X43532Y136049D01*
X43489Y135500D01*
X43532Y134951D01*
X43661Y134415D01*
X43872Y133906D01*
X44160Y133436D01*
X44517Y133017D01*
X44936Y132660D01*
X45197Y132500D01*
X44936Y132340D01*
X44517Y131983D01*
X44160Y131564D01*
X43872Y131094D01*
X43661Y130585D01*
X43532Y130049D01*
X43489Y129500D01*
X43532Y128951D01*
X43661Y128415D01*
X43872Y127906D01*
X44160Y127436D01*
X44517Y127017D01*
X44936Y126660D01*
X45406Y126372D01*
X45915Y126161D01*
X46451Y126032D01*
X46995Y125990D01*
Y23471D01*
X46951Y23468D01*
X46415Y23339D01*
X45906Y23128D01*
X45436Y22840D01*
X45017Y22483D01*
X44660Y22064D01*
X44372Y21594D01*
X44161Y21085D01*
X44032Y20549D01*
X43989Y20000D01*
X44032Y19451D01*
X44161Y18915D01*
X44372Y18406D01*
X44660Y17936D01*
X45017Y17517D01*
X45436Y17160D01*
X45906Y16872D01*
X46415Y16661D01*
X46951Y16532D01*
X46995Y16529D01*
Y0D01*
X32995D01*
Y165990D01*
X33000Y165989D01*
X33549Y166032D01*
X34085Y166161D01*
X34594Y166372D01*
X35064Y166660D01*
X35483Y167017D01*
X35840Y167436D01*
X36128Y167906D01*
X36339Y168415D01*
X36468Y168951D01*
X36500Y169500D01*
X36468Y170049D01*
X36339Y170585D01*
X36128Y171094D01*
X35840Y171564D01*
X35483Y171983D01*
X35064Y172340D01*
X34594Y172628D01*
X34085Y172839D01*
X33549Y172968D01*
X33000Y173011D01*
X32995Y173010D01*
Y195511D01*
X33278Y195443D01*
X34000Y195386D01*
X34722Y195443D01*
X35426Y195612D01*
X36095Y195889D01*
X36712Y196267D01*
X37263Y196737D01*
X37733Y197288D01*
X38111Y197905D01*
X38388Y198574D01*
X38557Y199278D01*
X38600Y200000D01*
X38557Y200722D01*
X38388Y201426D01*
X38111Y202095D01*
X37733Y202712D01*
X37263Y203263D01*
X36712Y203733D01*
X36095Y204111D01*
X35426Y204388D01*
X34722Y204557D01*
X34000Y204614D01*
X33278Y204557D01*
X32995Y204489D01*
Y210000D01*
G37*
G36*
X27492D02*X32995D01*
Y204489D01*
X32574Y204388D01*
X31905Y204111D01*
X31288Y203733D01*
X30737Y203263D01*
X30267Y202712D01*
X29889Y202095D01*
X29612Y201426D01*
X29443Y200722D01*
X29386Y200000D01*
X29443Y199278D01*
X29612Y198574D01*
X29889Y197905D01*
X30267Y197288D01*
X30737Y196737D01*
X31288Y196267D01*
X31905Y195889D01*
X32574Y195612D01*
X32995Y195511D01*
Y173010D01*
X32451Y172968D01*
X31915Y172839D01*
X31406Y172628D01*
X30936Y172340D01*
X30517Y171983D01*
X30160Y171564D01*
X29872Y171094D01*
X29661Y170585D01*
X29532Y170049D01*
X29489Y169500D01*
X29532Y168951D01*
X29661Y168415D01*
X29872Y167906D01*
X30160Y167436D01*
X30517Y167017D01*
X30936Y166660D01*
X31406Y166372D01*
X31915Y166161D01*
X32451Y166032D01*
X32995Y165990D01*
Y0D01*
X27492D01*
Y19684D01*
X27500Y19684D01*
X28332Y19749D01*
X29143Y19944D01*
X29914Y20263D01*
X30625Y20699D01*
X31259Y21241D01*
X31801Y21875D01*
X32237Y22586D01*
X32556Y23357D01*
X32751Y24168D01*
X32800Y25000D01*
X32751Y25832D01*
X32556Y26643D01*
X32237Y27413D01*
X31801Y28125D01*
X31259Y28759D01*
X30625Y29301D01*
X29914Y29737D01*
X29143Y30056D01*
X28332Y30251D01*
X27500Y30316D01*
X27492Y30316D01*
Y45275D01*
X27500Y45275D01*
X28332Y45340D01*
X29143Y45535D01*
X29914Y45854D01*
X30625Y46290D01*
X31259Y46832D01*
X31801Y47466D01*
X32237Y48177D01*
X32556Y48948D01*
X32751Y49759D01*
X32800Y50591D01*
X32751Y51423D01*
X32556Y52234D01*
X32237Y53004D01*
X31801Y53716D01*
X31259Y54350D01*
X30625Y54892D01*
X29914Y55328D01*
X29143Y55647D01*
X28332Y55842D01*
X27500Y55907D01*
X27492Y55907D01*
Y210000D01*
G37*
G36*
X19990D02*X27492D01*
Y55907D01*
X26668Y55842D01*
X25857Y55647D01*
X25086Y55328D01*
X24375Y54892D01*
X23741Y54350D01*
X23199Y53716D01*
X22763Y53004D01*
X22444Y52234D01*
X22249Y51423D01*
X22184Y50591D01*
X22249Y49759D01*
X22444Y48948D01*
X22763Y48177D01*
X23199Y47466D01*
X23741Y46832D01*
X24375Y46290D01*
X25086Y45854D01*
X25857Y45535D01*
X26668Y45340D01*
X27492Y45275D01*
Y30316D01*
X26668Y30251D01*
X25857Y30056D01*
X25086Y29737D01*
X24375Y29301D01*
X23741Y28759D01*
X23199Y28125D01*
X22763Y27413D01*
X22444Y26643D01*
X22249Y25832D01*
X22184Y25000D01*
X22249Y24168D01*
X22444Y23357D01*
X22763Y22586D01*
X23199Y21875D01*
X23741Y21241D01*
X24375Y20699D01*
X25086Y20263D01*
X25857Y19944D01*
X26668Y19749D01*
X27492Y19684D01*
Y0D01*
X19990D01*
Y5910D01*
X20235Y6197D01*
X20766Y7062D01*
X21154Y8000D01*
X21391Y8988D01*
X21451Y10000D01*
X21391Y11012D01*
X21154Y12000D01*
X20766Y12938D01*
X20235Y13803D01*
X19990Y14090D01*
Y104989D01*
X20032Y104451D01*
X20161Y103915D01*
X20372Y103406D01*
X20660Y102936D01*
X21017Y102517D01*
X21436Y102160D01*
X21906Y101872D01*
X22415Y101661D01*
X22951Y101532D01*
X23500Y101489D01*
X24049Y101532D01*
X24585Y101661D01*
X25094Y101872D01*
X25564Y102160D01*
X25983Y102517D01*
X26340Y102936D01*
X26628Y103406D01*
X26839Y103915D01*
X26968Y104451D01*
X27000Y105000D01*
X26968Y105549D01*
X26839Y106085D01*
X26628Y106594D01*
X26340Y107064D01*
X25983Y107483D01*
X25564Y107840D01*
X25094Y108128D01*
X24585Y108339D01*
X24049Y108468D01*
X23500Y108511D01*
X22951Y108468D01*
X22415Y108339D01*
X21906Y108128D01*
X21436Y107840D01*
X21017Y107483D01*
X20660Y107064D01*
X20372Y106594D01*
X20161Y106085D01*
X20032Y105549D01*
X19990Y105011D01*
Y193530D01*
X20000Y193529D01*
X21012Y193609D01*
X22000Y193846D01*
X22938Y194234D01*
X23803Y194765D01*
X24576Y195424D01*
X25235Y196197D01*
X25766Y197062D01*
X26154Y198000D01*
X26391Y198988D01*
X26451Y200000D01*
X26391Y201012D01*
X26154Y202000D01*
X25766Y202938D01*
X25235Y203803D01*
X24576Y204576D01*
X23803Y205235D01*
X22938Y205766D01*
X22000Y206154D01*
X21012Y206391D01*
X20000Y206471D01*
X19990Y206470D01*
Y210000D01*
G37*
G36*
X9786Y6172D02*X10424Y5424D01*
X11197Y4765D01*
X12062Y4234D01*
X13000Y3846D01*
X13988Y3609D01*
X15000Y3529D01*
X16012Y3609D01*
X17000Y3846D01*
X17938Y4234D01*
X18803Y4765D01*
X19576Y5424D01*
X19990Y5910D01*
Y0D01*
X9786D01*
Y6172D01*
G37*
G36*
X14101Y197383D02*X14234Y197062D01*
X14765Y196197D01*
X15424Y195424D01*
X16197Y194765D01*
X17062Y194234D01*
X18000Y193846D01*
X18988Y193609D01*
X19990Y193530D01*
Y105011D01*
X19989Y105000D01*
X19990Y104989D01*
Y14090D01*
X19576Y14576D01*
X18803Y15235D01*
X17938Y15766D01*
X17000Y16154D01*
X16012Y16391D01*
X15000Y16471D01*
X14101Y16400D01*
Y22283D01*
X14113Y22286D01*
X14222Y22332D01*
X14321Y22396D01*
X14410Y22474D01*
X14485Y22565D01*
X14543Y22667D01*
X14741Y23108D01*
X14892Y23567D01*
X15002Y24038D01*
X15067Y24517D01*
X15090Y25000D01*
X15067Y25483D01*
X15002Y25962D01*
X14892Y26433D01*
X14741Y26892D01*
X14548Y27335D01*
X14488Y27437D01*
X14413Y27529D01*
X14324Y27607D01*
X14223Y27671D01*
X14114Y27718D01*
X14101Y27721D01*
Y47874D01*
X14113Y47877D01*
X14222Y47923D01*
X14321Y47987D01*
X14410Y48065D01*
X14485Y48156D01*
X14543Y48258D01*
X14741Y48699D01*
X14892Y49158D01*
X15002Y49629D01*
X15067Y50108D01*
X15090Y50591D01*
X15067Y51074D01*
X15002Y51553D01*
X14892Y52024D01*
X14741Y52483D01*
X14548Y52926D01*
X14488Y53028D01*
X14413Y53120D01*
X14324Y53198D01*
X14223Y53262D01*
X14114Y53309D01*
X14101Y53312D01*
Y197383D01*
G37*
G36*
Y210000D02*X19990D01*
Y206470D01*
X18988Y206391D01*
X18000Y206154D01*
X17062Y205766D01*
X16197Y205235D01*
X15424Y204576D01*
X14765Y203803D01*
X14234Y202938D01*
X14101Y202617D01*
Y210000D01*
G37*
G36*
X9786D02*X14101D01*
Y202617D01*
X13846Y202000D01*
X13609Y201012D01*
X13529Y200000D01*
X13609Y198988D01*
X13846Y198000D01*
X14101Y197383D01*
Y53312D01*
X14000Y53338D01*
X13881Y53350D01*
X13763Y53342D01*
X13647Y53316D01*
X13537Y53272D01*
X13435Y53212D01*
X13343Y53136D01*
X13265Y53047D01*
X13201Y52947D01*
X13154Y52838D01*
X13125Y52723D01*
X13113Y52605D01*
X13121Y52487D01*
X13147Y52371D01*
X13193Y52262D01*
X13334Y51946D01*
X13443Y51617D01*
X13521Y51280D01*
X13568Y50937D01*
X13584Y50591D01*
X13568Y50245D01*
X13521Y49902D01*
X13443Y49565D01*
X13334Y49236D01*
X13196Y48918D01*
X13151Y48810D01*
X13125Y48694D01*
X13117Y48577D01*
X13128Y48459D01*
X13158Y48345D01*
X13205Y48236D01*
X13268Y48137D01*
X13346Y48048D01*
X13437Y47973D01*
X13539Y47913D01*
X13648Y47869D01*
X13763Y47844D01*
X13881Y47836D01*
X13999Y47847D01*
X14101Y47874D01*
Y27721D01*
X14000Y27747D01*
X13881Y27759D01*
X13763Y27751D01*
X13647Y27725D01*
X13537Y27682D01*
X13435Y27621D01*
X13343Y27545D01*
X13265Y27456D01*
X13201Y27356D01*
X13154Y27247D01*
X13125Y27132D01*
X13113Y27014D01*
X13121Y26896D01*
X13147Y26780D01*
X13193Y26671D01*
X13334Y26355D01*
X13443Y26026D01*
X13521Y25689D01*
X13568Y25346D01*
X13584Y25000D01*
X13568Y24654D01*
X13521Y24311D01*
X13443Y23974D01*
X13334Y23645D01*
X13196Y23327D01*
X13151Y23219D01*
X13125Y23104D01*
X13117Y22986D01*
X13128Y22868D01*
X13158Y22754D01*
X13205Y22645D01*
X13268Y22546D01*
X13346Y22457D01*
X13437Y22382D01*
X13539Y22322D01*
X13648Y22278D01*
X13763Y22253D01*
X13881Y22245D01*
X13999Y22256D01*
X14101Y22283D01*
Y16400D01*
X13988Y16391D01*
X13000Y16154D01*
X12062Y15766D01*
X11197Y15235D01*
X10424Y14576D01*
X9786Y13828D01*
Y19694D01*
X10267Y19716D01*
X10746Y19782D01*
X11217Y19891D01*
X11676Y20043D01*
X12119Y20236D01*
X12222Y20296D01*
X12313Y20371D01*
X12391Y20460D01*
X12455Y20561D01*
X12502Y20669D01*
X12532Y20784D01*
X12543Y20903D01*
X12535Y21021D01*
X12509Y21137D01*
X12466Y21247D01*
X12405Y21349D01*
X12330Y21441D01*
X12240Y21519D01*
X12140Y21583D01*
X12031Y21630D01*
X11916Y21659D01*
X11798Y21670D01*
X11680Y21663D01*
X11564Y21637D01*
X11455Y21591D01*
X11139Y21450D01*
X10810Y21341D01*
X10473Y21263D01*
X10130Y21216D01*
X9786Y21200D01*
Y28800D01*
X10130Y28784D01*
X10473Y28737D01*
X10810Y28659D01*
X11139Y28550D01*
X11456Y28412D01*
X11565Y28367D01*
X11680Y28341D01*
X11798Y28333D01*
X11916Y28344D01*
X12030Y28374D01*
X12138Y28421D01*
X12238Y28484D01*
X12327Y28562D01*
X12402Y28653D01*
X12462Y28754D01*
X12506Y28864D01*
X12531Y28979D01*
X12539Y29097D01*
X12528Y29215D01*
X12498Y29329D01*
X12451Y29437D01*
X12388Y29537D01*
X12310Y29626D01*
X12219Y29701D01*
X12117Y29759D01*
X11676Y29957D01*
X11217Y30108D01*
X10746Y30217D01*
X10267Y30283D01*
X9786Y30305D01*
Y45285D01*
X10267Y45307D01*
X10746Y45373D01*
X11217Y45482D01*
X11676Y45634D01*
X12119Y45827D01*
X12222Y45887D01*
X12313Y45962D01*
X12391Y46051D01*
X12455Y46152D01*
X12502Y46260D01*
X12532Y46375D01*
X12543Y46494D01*
X12535Y46612D01*
X12509Y46728D01*
X12466Y46838D01*
X12405Y46940D01*
X12330Y47032D01*
X12240Y47110D01*
X12140Y47174D01*
X12031Y47221D01*
X11916Y47250D01*
X11798Y47261D01*
X11680Y47254D01*
X11564Y47228D01*
X11455Y47182D01*
X11139Y47041D01*
X10810Y46932D01*
X10473Y46854D01*
X10130Y46807D01*
X9786Y46791D01*
Y54391D01*
X10130Y54375D01*
X10473Y54328D01*
X10810Y54250D01*
X11139Y54141D01*
X11456Y54003D01*
X11565Y53958D01*
X11680Y53932D01*
X11798Y53924D01*
X11916Y53935D01*
X12030Y53965D01*
X12138Y54012D01*
X12238Y54075D01*
X12327Y54153D01*
X12402Y54244D01*
X12462Y54345D01*
X12506Y54455D01*
X12531Y54570D01*
X12539Y54688D01*
X12528Y54806D01*
X12498Y54920D01*
X12451Y55028D01*
X12388Y55128D01*
X12310Y55217D01*
X12219Y55292D01*
X12117Y55350D01*
X11676Y55548D01*
X11217Y55699D01*
X10746Y55808D01*
X10267Y55874D01*
X9786Y55896D01*
Y210000D01*
G37*
G36*
X5467D02*X9786D01*
Y55896D01*
X9784Y55896D01*
X9301Y55874D01*
X8822Y55808D01*
X8351Y55699D01*
X7892Y55548D01*
X7449Y55355D01*
X7346Y55295D01*
X7255Y55220D01*
X7177Y55130D01*
X7113Y55030D01*
X7066Y54921D01*
X7036Y54806D01*
X7025Y54688D01*
X7033Y54570D01*
X7059Y54454D01*
X7102Y54344D01*
X7163Y54242D01*
X7238Y54150D01*
X7328Y54072D01*
X7428Y54008D01*
X7537Y53961D01*
X7652Y53931D01*
X7770Y53920D01*
X7888Y53928D01*
X8004Y53954D01*
X8113Y54000D01*
X8429Y54141D01*
X8758Y54250D01*
X9095Y54328D01*
X9438Y54375D01*
X9784Y54391D01*
X9786Y54391D01*
Y46791D01*
X9784Y46791D01*
X9438Y46807D01*
X9095Y46854D01*
X8758Y46932D01*
X8429Y47041D01*
X8112Y47179D01*
X8003Y47224D01*
X7888Y47250D01*
X7770Y47257D01*
X7652Y47246D01*
X7538Y47217D01*
X7430Y47170D01*
X7330Y47107D01*
X7241Y47029D01*
X7166Y46938D01*
X7106Y46836D01*
X7062Y46727D01*
X7037Y46611D01*
X7029Y46494D01*
X7040Y46376D01*
X7070Y46262D01*
X7117Y46153D01*
X7180Y46054D01*
X7258Y45965D01*
X7349Y45890D01*
X7451Y45832D01*
X7892Y45634D01*
X8351Y45482D01*
X8822Y45373D01*
X9301Y45307D01*
X9784Y45285D01*
X9786Y45285D01*
Y30305D01*
X9784Y30305D01*
X9301Y30283D01*
X8822Y30217D01*
X8351Y30108D01*
X7892Y29957D01*
X7449Y29764D01*
X7346Y29704D01*
X7255Y29629D01*
X7177Y29539D01*
X7113Y29439D01*
X7066Y29330D01*
X7036Y29215D01*
X7025Y29097D01*
X7033Y28979D01*
X7059Y28863D01*
X7102Y28753D01*
X7163Y28651D01*
X7238Y28559D01*
X7328Y28481D01*
X7428Y28417D01*
X7537Y28370D01*
X7652Y28340D01*
X7770Y28329D01*
X7888Y28337D01*
X8004Y28363D01*
X8113Y28409D01*
X8429Y28550D01*
X8758Y28659D01*
X9095Y28737D01*
X9438Y28784D01*
X9784Y28800D01*
X9786Y28800D01*
Y21200D01*
X9784Y21200D01*
X9438Y21216D01*
X9095Y21263D01*
X8758Y21341D01*
X8429Y21450D01*
X8112Y21588D01*
X8003Y21633D01*
X7888Y21659D01*
X7770Y21666D01*
X7652Y21655D01*
X7538Y21626D01*
X7430Y21579D01*
X7330Y21516D01*
X7241Y21438D01*
X7166Y21347D01*
X7106Y21245D01*
X7062Y21136D01*
X7037Y21020D01*
X7029Y20903D01*
X7040Y20785D01*
X7070Y20671D01*
X7117Y20562D01*
X7180Y20463D01*
X7258Y20374D01*
X7349Y20299D01*
X7451Y20241D01*
X7892Y20043D01*
X8351Y19891D01*
X8822Y19782D01*
X9301Y19716D01*
X9784Y19694D01*
X9786Y19694D01*
Y13828D01*
X9765Y13803D01*
X9234Y12938D01*
X8846Y12000D01*
X8609Y11012D01*
X8529Y10000D01*
X8609Y8988D01*
X8846Y8000D01*
X9234Y7062D01*
X9765Y6197D01*
X9786Y6172D01*
Y0D01*
X5467D01*
Y22278D01*
X5568Y22252D01*
X5687Y22241D01*
X5805Y22249D01*
X5921Y22275D01*
X6031Y22318D01*
X6133Y22379D01*
X6225Y22454D01*
X6303Y22543D01*
X6367Y22644D01*
X6414Y22753D01*
X6443Y22867D01*
X6455Y22986D01*
X6447Y23104D01*
X6421Y23220D01*
X6375Y23329D01*
X6234Y23645D01*
X6125Y23974D01*
X6047Y24311D01*
X6000Y24654D01*
X5984Y25000D01*
X6000Y25346D01*
X6047Y25689D01*
X6125Y26026D01*
X6234Y26355D01*
X6372Y26672D01*
X6417Y26781D01*
X6443Y26896D01*
X6451Y27014D01*
X6439Y27132D01*
X6410Y27246D01*
X6363Y27354D01*
X6300Y27454D01*
X6222Y27543D01*
X6131Y27618D01*
X6029Y27678D01*
X5920Y27721D01*
X5805Y27747D01*
X5687Y27755D01*
X5569Y27744D01*
X5467Y27717D01*
Y47869D01*
X5568Y47843D01*
X5687Y47832D01*
X5805Y47840D01*
X5921Y47866D01*
X6031Y47909D01*
X6133Y47970D01*
X6225Y48045D01*
X6303Y48134D01*
X6367Y48235D01*
X6414Y48344D01*
X6443Y48458D01*
X6455Y48577D01*
X6447Y48695D01*
X6421Y48811D01*
X6375Y48920D01*
X6234Y49236D01*
X6125Y49565D01*
X6047Y49902D01*
X6000Y50245D01*
X5984Y50591D01*
X6000Y50937D01*
X6047Y51280D01*
X6125Y51617D01*
X6234Y51946D01*
X6372Y52263D01*
X6417Y52372D01*
X6443Y52487D01*
X6451Y52605D01*
X6439Y52723D01*
X6410Y52837D01*
X6363Y52945D01*
X6300Y53045D01*
X6222Y53134D01*
X6131Y53209D01*
X6029Y53269D01*
X5920Y53312D01*
X5805Y53338D01*
X5687Y53346D01*
X5569Y53335D01*
X5467Y53308D01*
Y210000D01*
G37*
G36*
X0Y0D02*Y210000D01*
X5467D01*
Y53308D01*
X5455Y53305D01*
X5346Y53258D01*
X5247Y53195D01*
X5158Y53117D01*
X5083Y53026D01*
X5025Y52923D01*
X4827Y52483D01*
X4676Y52024D01*
X4566Y51553D01*
X4501Y51074D01*
X4478Y50591D01*
X4501Y50108D01*
X4566Y49629D01*
X4676Y49158D01*
X4827Y48699D01*
X5020Y48256D01*
X5080Y48153D01*
X5155Y48062D01*
X5244Y47983D01*
X5345Y47920D01*
X5454Y47873D01*
X5467Y47869D01*
Y27717D01*
X5455Y27714D01*
X5346Y27667D01*
X5247Y27604D01*
X5158Y27526D01*
X5083Y27435D01*
X5025Y27332D01*
X4827Y26892D01*
X4676Y26433D01*
X4566Y25962D01*
X4501Y25483D01*
X4478Y25000D01*
X4501Y24517D01*
X4566Y24038D01*
X4676Y23567D01*
X4827Y23108D01*
X5020Y22665D01*
X5080Y22562D01*
X5155Y22471D01*
X5244Y22392D01*
X5345Y22329D01*
X5454Y22282D01*
X5467Y22278D01*
Y0D01*
X0D01*
G37*
G36*
X207000Y123500D02*Y116500D01*
X214000D01*
Y123500D01*
X207000D01*
G37*
G54D57*X220500Y120000D03*
Y110000D03*
Y100000D03*
X210500Y110000D03*
Y100000D03*
G54D56*G36*
X119938Y129763D02*Y127363D01*
X122338D01*
Y129763D01*
X119938D01*
G37*
G36*
X124662D02*Y127363D01*
X127062D01*
Y129763D01*
X124662D01*
G37*
G36*
X119938Y133700D02*Y131300D01*
X122338D01*
Y133700D01*
X119938D01*
G37*
G36*
X124662D02*Y131300D01*
X127062D01*
Y133700D01*
X124662D01*
G37*
G36*
X119938Y137637D02*Y135237D01*
X122338D01*
Y137637D01*
X119938D01*
G37*
G36*
X124662D02*Y135237D01*
X127062D01*
Y137637D01*
X124662D01*
G37*
G36*
X156500Y13500D02*Y6500D01*
X163500D01*
Y13500D01*
X156500D01*
G37*
G54D57*X170000Y10000D03*
X180000D03*
X190000D03*
X200000D03*
X210000D03*
G54D56*G36*
X104000Y83500D02*Y76500D01*
X111000D01*
Y83500D01*
X104000D01*
G37*
G54D57*X107500Y70000D03*
Y60000D03*
G54D56*G36*
X66500Y13500D02*Y6500D01*
X73500D01*
Y13500D01*
X66500D01*
G37*
G54D57*X80000Y10000D03*
X90000D03*
X100000D03*
X110000D03*
X120000D03*
X130000D03*
X140000D03*
G54D58*X9784Y50591D03*
Y25000D03*
X27500Y50591D03*
Y25000D03*
G54D56*G36*
X206500Y203500D02*Y196500D01*
X213500D01*
Y203500D01*
X206500D01*
G37*
G54D57*X200000Y200000D03*
X190000D03*
X180000D03*
X170000D03*
X160000D03*
X150000D03*
X140000D03*
G54D56*G36*
X120500Y203500D02*Y196500D01*
X127500D01*
Y203500D01*
X120500D01*
G37*
G54D57*X114000Y200000D03*
X104000D03*
X94000D03*
X84000D03*
X74000D03*
X64000D03*
X54000D03*
X44000D03*
X34000D03*
G54D59*X220000Y30000D03*
X20000Y200000D03*
G54D60*X114000Y148500D03*
X85000Y176500D03*
X33000Y169500D03*
X56500Y182500D03*
X45000Y165000D03*
X47000Y148000D03*
X126500Y146500D03*
X47000Y135500D03*
Y129500D03*
G54D61*X110000Y20000D03*
X140000D03*
G54D59*X220000Y140000D03*
G54D60*X143500Y136000D03*
Y127500D03*
X135500Y123500D03*
X130000Y80000D03*
G54D61*X160000Y74500D03*
G54D60*X190000Y75000D03*
Y60000D03*
X198189Y127500D03*
X170000Y120000D03*
X190000Y105000D03*
Y97500D03*
Y82500D03*
Y90000D03*
Y40000D03*
G54D59*X15000Y10000D03*
G54D60*X20000Y70000D03*
X75500Y111500D03*
X112000Y123000D03*
X57500Y99500D03*
Y93500D03*
Y87000D03*
Y10000D03*
X47500Y20000D03*
X85000Y45000D03*
X23500Y105000D03*
X35000Y125000D03*
G54D62*X228000Y188500D03*
X225000D03*
Y185500D03*
Y182500D03*
G54D63*X229200Y183300D03*
G54D62*X225000Y179500D03*
X222000D03*
X219000D03*
X216000D03*
Y170500D03*
X219000D03*
X222000D03*
X225000D03*
X228000D03*
G54D64*G54D63*G54D65*G54D64*G54D63*G54D65*G54D63*G54D64*G54D63*G54D66*G54D67*G54D66*G54D68*G54D63*G54D68*M02*
