G04 start of page 10 for group -4015 idx -4015 *
G04 Title: (unknown), toppaste *
G04 Creator: pcb 20140316 *
G04 CreationDate: Пн 24 сен 2018 19:36:44 UTC *
G04 For: alex *
G04 Format: Gerber/RS-274X *
G04 PCB-Dimensions (mil): 2505.69 2100.00 *
G04 PCB-Coordinate-Origin: lower left *
%MOIN*%
%FSLAX25Y25*%
%LNTOPPASTE*%
%ADD114R,0.0250X0.0250*%
%ADD113R,0.0300X0.0300*%
%ADD112R,0.0472X0.0472*%
%ADD111R,0.0394X0.0394*%
%ADD110R,0.1024X0.1024*%
%ADD109R,0.0200X0.0200*%
%ADD108R,0.0807X0.0807*%
%ADD107R,0.0110X0.0110*%
%ADD106R,0.0315X0.0315*%
%ADD105R,0.0490X0.0490*%
%ADD104R,0.0340X0.0340*%
%ADD103R,0.0690X0.0690*%
%ADD102R,0.0157X0.0157*%
%ADD101R,0.0512X0.0512*%
%ADD100R,0.0295X0.0295*%
G54D100*X100508Y104059D02*X101492D01*
X100508Y98941D02*X101492D01*
X80508D02*X81492D01*
X80508Y104059D02*X81492D01*
G54D101*X128190Y43681D02*Y41319D01*
X140000Y43681D02*Y41319D01*
X167086Y67893D02*Y67107D01*
X160000Y67893D02*Y67107D01*
G54D100*X154508Y82500D02*X155492D01*
X154508Y87618D02*X155492D01*
X139508D02*X140492D01*
X139508Y82500D02*X140492D01*
X147008D02*X147992D01*
X147008Y87618D02*X147992D01*
G54D101*X158190Y56181D02*Y53819D01*
X170000Y56181D02*Y53819D01*
X7914Y180393D02*Y179607D01*
X15000Y180393D02*Y179607D01*
G54D100*X22382Y180492D02*Y179508D01*
X27500Y180492D02*Y179508D01*
G54D101*X7914Y135393D02*Y134607D01*
X15000Y135393D02*Y134607D01*
G54D100*X22323Y135492D02*Y134508D01*
X27441Y135492D02*Y134508D01*
G54D101*X7914Y150393D02*Y149607D01*
X15000Y150393D02*Y149607D01*
G54D100*X22264Y150492D02*Y149508D01*
X27382Y150492D02*Y149508D01*
G54D101*X7914Y165393D02*Y164607D01*
X15000Y165393D02*Y164607D01*
G54D100*X22323Y165492D02*Y164508D01*
X27441Y165492D02*Y164508D01*
G54D102*X64252Y122528D02*Y118102D01*
X67401Y122528D02*Y118102D01*
X70551Y122528D02*Y118102D01*
X73700Y122528D02*Y118102D01*
X76850Y122528D02*Y118102D01*
X80000Y122528D02*Y118102D01*
X83149Y122528D02*Y118102D01*
X86299Y122528D02*Y118102D01*
X89448Y122528D02*Y118102D01*
X92598Y122528D02*Y118102D01*
X95748Y122528D02*Y118102D01*
X102472Y129252D02*X106898D01*
X102472Y132401D02*X106898D01*
X102472Y135551D02*X106898D01*
X102472Y138700D02*X106898D01*
X102472Y141850D02*X106898D01*
X102472Y145000D02*X106898D01*
X102472Y148149D02*X106898D01*
X102472Y151299D02*X106898D01*
X102472Y154448D02*X106898D01*
X102472Y157598D02*X106898D01*
X102472Y160748D02*X106898D01*
X95748Y171898D02*Y167472D01*
X92599Y171898D02*Y167472D01*
X89449Y171898D02*Y167472D01*
X86300Y171898D02*Y167472D01*
X83150Y171898D02*Y167472D01*
X80000Y171898D02*Y167472D01*
X76851Y171898D02*Y167472D01*
X73701Y171898D02*Y167472D01*
X70552Y171898D02*Y167472D01*
X67402Y171898D02*Y167472D01*
X64252Y171898D02*Y167472D01*
X53102Y160748D02*X57528D01*
X53102Y157599D02*X57528D01*
X53102Y154449D02*X57528D01*
X53102Y151300D02*X57528D01*
X53102Y148150D02*X57528D01*
X53102Y145000D02*X57528D01*
X53102Y141851D02*X57528D01*
X53102Y138701D02*X57528D01*
X53102Y135552D02*X57528D01*
X53102Y132402D02*X57528D01*
X53102Y129252D02*X57528D01*
G54D100*X74008Y183618D02*X74992D01*
X74008Y178500D02*X74992D01*
X184882Y127992D02*Y127008D01*
X190000Y127992D02*Y127008D01*
X219508Y197618D02*X220492D01*
X219508Y192500D02*X220492D01*
G54D103*X140000Y30600D02*Y29400D01*
X129000Y30600D02*Y29400D01*
G54D104*X42900Y176100D02*X43500D01*
X42900Y183900D02*X43500D01*
X34700Y180000D02*X35300D01*
G54D100*X50008Y182500D02*X50992D01*
X50008Y177382D02*X50992D01*
G54D105*X110000Y31800D02*Y28200D01*
X100000Y31800D02*Y28200D01*
G54D106*X146220Y182874D02*X147795D01*
X146220Y175000D02*X147795D01*
X146220Y167126D02*X147795D01*
X146220Y159252D02*X147795D01*
X146220Y151378D02*X147795D01*
X146220Y143504D02*X147795D01*
X209213Y182874D02*X210787D01*
X209213Y175000D02*X210787D01*
X209213Y167126D02*X210787D01*
X209213Y159252D02*X210787D01*
X209213Y151378D02*X210787D01*
X209213Y143504D02*X210787D01*
X158819Y191535D02*Y189961D01*
X150945Y136417D02*Y134843D01*
X158819Y136417D02*Y134843D01*
X166693Y136417D02*Y134843D01*
X174567Y136417D02*Y134843D01*
X182441Y136417D02*Y134843D01*
X190315Y136417D02*Y134843D01*
X198189Y136417D02*Y134843D01*
X206063Y136417D02*Y134843D01*
G54D107*X115429Y125610D02*X117791D01*
X115429Y127579D02*X117791D01*
X115429Y129547D02*X117791D01*
X115429Y131516D02*X117791D01*
X115429Y133484D02*X117791D01*
X115429Y135453D02*X117791D01*
X115429Y137421D02*X117791D01*
X115429Y139390D02*X117791D01*
X129209Y125610D02*X131571D01*
X129209Y127579D02*X131571D01*
X129209Y129547D02*X131571D01*
X129209Y131516D02*X131571D01*
X129209Y133484D02*X131571D01*
X129209Y135453D02*X131571D01*
X129209Y137421D02*X131571D01*
X129209Y139390D02*X131571D01*
G54D108*X123500Y134469D02*Y130531D01*
G54D107*X120547Y124823D02*Y122461D01*
X126453Y124823D02*Y122461D01*
Y142539D02*Y140177D01*
X120547Y142539D02*Y140177D01*
G54D109*X135000Y53500D02*Y51500D01*
X140000Y53500D02*Y51500D01*
X145000Y53500D02*Y51500D01*
X150000Y53500D02*Y51500D01*
X135000Y74500D02*Y72500D01*
X140000Y74500D02*Y72500D01*
X145000Y74500D02*Y72500D01*
X150000Y74500D02*Y72500D01*
G54D110*X140728Y63000D02*X144272D01*
G54D111*X152500Y37165D02*Y32835D01*
X174548Y37165D02*Y32835D01*
G54D112*X87850Y97563D02*Y96776D01*
X94150Y97563D02*Y96776D01*
Y106224D02*Y105437D01*
X87850Y106224D02*Y105437D01*
G54D113*X44750Y115000D02*X51250D01*
X44750Y110000D02*X51250D01*
X44750Y105000D02*X51250D01*
X29250Y115000D02*X35750D01*
X29250Y110000D02*X35750D01*
X29250Y105000D02*X35750D01*
G54D114*X67100Y25000D02*X67900D01*
X67100Y33700D02*X67900D01*
X47100Y25000D02*X47900D01*
X47100Y33700D02*X47900D01*
X57100Y42500D02*X57900D01*
X57100Y33800D02*X57900D01*
M02*
