G04 start of page 7 for group -4062 idx -4062 *
G04 Title: (unknown), soldermask *
G04 Creator: pcb 20140316 *
G04 CreationDate: Пн 24 сен 2018 19:36:44 UTC *
G04 For: alex *
G04 Format: Gerber/RS-274X *
G04 PCB-Dimensions (mil): 2505.69 2100.00 *
G04 PCB-Coordinate-Origin: lower left *
%MOIN*%
%FSLAX25Y25*%
%LNBOTTOMMASK*%
%ADD94R,0.0355X0.0355*%
%ADD93C,0.0820*%
%ADD92C,0.0760*%
%ADD91C,0.0001*%
G54D91*G36*
X206700Y123800D02*Y116200D01*
X214300D01*
Y123800D01*
X206700D01*
G37*
G54D92*X220500Y120000D03*
Y110000D03*
Y100000D03*
X210500Y110000D03*
Y100000D03*
G54D91*G36*
X119638Y130063D02*Y127063D01*
X122638D01*
Y130063D01*
X119638D01*
G37*
G36*
X124362D02*Y127063D01*
X127362D01*
Y130063D01*
X124362D01*
G37*
G36*
X119638Y134000D02*Y131000D01*
X122638D01*
Y134000D01*
X119638D01*
G37*
G36*
X124362D02*Y131000D01*
X127362D01*
Y134000D01*
X124362D01*
G37*
G36*
X119638Y137937D02*Y134937D01*
X122638D01*
Y137937D01*
X119638D01*
G37*
G36*
X124362D02*Y134937D01*
X127362D01*
Y137937D01*
X124362D01*
G37*
G36*
X156200Y13800D02*Y6200D01*
X163800D01*
Y13800D01*
X156200D01*
G37*
G54D92*X170000Y10000D03*
X180000D03*
X190000D03*
X200000D03*
X210000D03*
G54D91*G36*
X103700Y83800D02*Y76200D01*
X111300D01*
Y83800D01*
X103700D01*
G37*
G54D92*X107500Y70000D03*
Y60000D03*
G54D91*G36*
X66200Y13800D02*Y6200D01*
X73800D01*
Y13800D01*
X66200D01*
G37*
G54D92*X80000Y10000D03*
X90000D03*
X100000D03*
X110000D03*
X120000D03*
X130000D03*
X140000D03*
G54D93*X9784Y50591D03*
Y25000D03*
X27500Y50591D03*
Y25000D03*
G54D91*G36*
X206200Y203800D02*Y196200D01*
X213800D01*
Y203800D01*
X206200D01*
G37*
G54D92*X200000Y200000D03*
X190000D03*
X180000D03*
X170000D03*
X160000D03*
X150000D03*
X140000D03*
G54D91*G36*
X120200Y203800D02*Y196200D01*
X127800D01*
Y203800D01*
X120200D01*
G37*
G54D92*X114000Y200000D03*
X104000D03*
X94000D03*
X84000D03*
X74000D03*
X64000D03*
X54000D03*
X44000D03*
X34000D03*
G54D94*X103382Y148992D02*Y148008D01*
X75008Y117000D02*X75992D01*
X75008Y122118D02*X75992D01*
X108500Y148992D02*Y148008D01*
X108008Y133118D02*X108992D01*
X108008Y128000D02*X108992D01*
X135008Y112882D02*X135992D01*
X135008Y118000D02*X135992D01*
X198008Y138118D02*X198992D01*
X198008Y133000D02*X198992D01*
X52500Y148492D02*Y147508D01*
X57618Y148492D02*Y147508D01*
X84508Y171000D02*X85492D01*
X84508Y165882D02*X85492D01*
M02*
