v 20130925 2
T 600 200 5 10 0 1 0 0 1
device=IRLML2030
T 600 300 5 10 0 0 0 0 1
numslots=0
T 600 400 5 10 0 0 0 0 1
description=HEXFET Power MOSFET
T 600 500 5 10 0 0 0 0 1
footprint=SOT23
L 250 600 500 600 3 0 0 0 -1 -1
L 250 200 500 200 3 0 0 0 -1 -1
L 250 400 350 450 3 0 0 0 -1 -1
L 250 400 350 350 3 0 0 0 -1 -1
P 0 200 200 200 1 0 0
{
T 0 500 5 10 0 1 0 0 1
pinnumber=1
T 0 300 9 10 0 1 0 0 1
pinlabel=G
T 0 1000 5 10 0 0 0 0 1
pinseq=1
T 0 900 5 10 0 0 0 0 1
pintype=pas
}
P 500 600 500 800 1 0 1
{
T 600 700 5 10 0 1 0 0 1
pinnumber=3
T 300 700 9 10 0 1 0 0 1
pinlabel=D
T 800 800 5 10 0 0 0 0 1
pinseq=3
T 800 700 5 10 0 0 0 0 1
pintype=pas
}
P 500 200 500 0 1 0 1
{
T 600 0 5 10 0 1 0 0 1
pinnumber=2
T 300 0 9 10 0 1 0 0 1
pinlabel=S
T 800 100 5 10 0 0 0 0 1
pinseq=2
T 800 0 5 10 0 0 0 0 1
pintype=pas
}
T 600 600 8 10 1 1 0 0 1
refdes=Q?
L 250 675 250 525 3 0 0 0 -1 -1
L 250 475 250 325 3 0 0 0 -1 -1
L 250 275 250 125 3 0 0 0 -1 -1
L 200 600 200 200 3 0 0 0 -1 -1
L 250 400 400 400 3 0 0 0 -1 -1
L 400 400 400 200 3 0 0 0 -1 -1
L 500 600 500 450 3 0 0 0 -1 -1
L 500 450 550 350 3 0 0 0 -1 -1
L 500 450 450 350 3 0 0 0 -1 -1
L 450 350 550 350 3 0 0 0 -1 -1
L 450 450 550 450 3 0 0 0 -1 -1
L 450 450 425 425 3 0 0 0 -1 -1
L 550 450 575 475 3 0 0 0 -1 -1
L 500 350 500 200 3 0 0 0 -1 -1
