v 20130925 2
B 300 300 3200 3200 3 0 0 0 -1 -1 0 -1 -1 -1 -1 -1
P 0 1900 300 1900 1 0 0
{
T 0 1900 5 10 0 0 0 0 1
pintype=pwr
T 355 1895 9 10 1 1 0 1 1
pinlabel=GND
T 205 1945 5 8 1 1 0 6 1
pinnumber=21
T 0 1900 5 10 0 0 0 0 1
pinseq=21
}
P 900 3800 900 3500 1 0 0
{
T 900 3800 5 10 0 0 0 0 1
pintype=in
T 900 3445 9 10 1 1 90 7 1
pinlabel=MODE
T 850 3595 5 8 1 1 90 0 1
pinnumber=20
T 900 3800 5 10 0 0 0 0 1
pinseq=20
}
P 1300 3800 1300 3500 1 0 0
{
T 1300 3800 5 10 0 0 0 0 1
pintype=out
T 1300 3445 9 10 1 1 90 7 1
pinlabel=RF_OUT
T 1250 3595 5 8 1 1 90 0 1
pinnumber=19
T 1300 3800 5 10 0 0 0 0 1
pinseq=19
}
P 1700 3800 1700 3500 1 0 0
{
T 1700 3800 5 10 0 0 0 0 1
pintype=pwr
T 1700 3445 9 10 1 1 90 7 1
pinlabel=GND
T 1650 3595 5 8 1 1 90 0 1
pinnumber=18
T 1700 3800 5 10 0 0 0 0 1
pinseq=18
}
P 2100 3800 2100 3500 1 0 0
{
T 2100 3800 5 10 0 0 0 0 1
pintype=pas
T 2100 3445 9 10 1 1 90 7 1
pinlabel=NC
T 2050 3595 5 8 1 1 90 0 1
pinnumber=17
T 2100 3800 5 10 0 0 0 0 1
pinseq=17
}
P 2500 3800 2500 3500 1 0 0
{
T 2500 3800 5 10 0 0 0 0 1
pintype=pas
T 2500 3445 9 10 1 1 90 7 1
pinlabel=NC
T 2450 3595 5 8 1 1 90 0 1
pinnumber=16
T 2500 3800 5 10 0 0 0 0 1
pinseq=16
}
P 2900 3800 2900 3500 1 0 0
{
T 2900 3800 5 10 0 0 0 0 1
pintype=pas
T 2900 3445 9 10 1 1 90 7 1
pinlabel=NC
T 2850 3595 5 8 1 1 90 0 1
pinnumber=15
T 2900 3800 5 10 0 0 0 0 1
pinseq=15
}
P 3800 3300 3500 3300 1 0 0
{
T 3800 3300 5 10 0 0 0 0 1
pintype=pas
T 3445 3295 9 10 1 1 0 7 1
pinlabel=NC
T 3595 3345 5 8 1 1 0 0 1
pinnumber=14
T 3800 3300 5 10 0 0 0 0 1
pinseq=14
}
P 3800 2900 3500 2900 1 0 0
{
T 3800 2900 5 10 0 0 0 0 1
pintype=pwr
T 3445 2895 9 10 1 1 0 7 1
pinlabel=3.3V
T 3595 2945 5 8 1 1 0 0 1
pinnumber=13
T 3800 2900 5 10 0 0 0 0 1
pinseq=13
}
P 3800 2500 3500 2500 1 0 0
{
T 3800 2500 5 10 0 0 0 0 1
pintype=pwr
T 3445 2495 9 10 1 1 0 7 1
pinlabel=1.8V
T 3595 2545 5 8 1 1 0 0 1
pinnumber=12
T 3800 2500 5 10 0 0 0 0 1
pinseq=12
}
P 3800 2100 3500 2100 1 0 0
{
T 3800 2100 5 10 0 0 0 0 1
pintype=in
T 3445 2095 9 10 1 1 0 7 1
pinlabel=SCK
T 3595 2145 5 8 1 1 0 0 1
pinnumber=11
T 3800 2100 5 10 0 0 0 0 1
pinseq=11
}
P 3800 1700 3500 1700 1 0 0
{
T 3800 1700 5 10 0 0 0 0 1
pintype=out
T 3445 1695 9 10 1 1 0 7 1
pinlabel=MISO
T 3595 1745 5 8 1 1 0 0 1
pinnumber=10
T 3800 1700 5 10 0 0 0 0 1
pinseq=10
}
P 3800 1300 3500 1300 1 0 0
{
T 3800 1300 5 10 0 0 0 0 1
pintype=out
T 3445 1295 9 10 1 1 0 7 1
pinlabel=INT
T 3595 1345 5 8 1 1 0 0 1
pinnumber=9
T 3800 1300 5 10 0 0 0 0 1
pinseq=9
}
P 3800 900 3500 900 1 0 0
{
T 3800 900 5 10 0 0 0 0 1
pintype=pas
T 3445 895 9 10 1 1 0 7 1
pinlabel=NC
T 3595 945 5 8 1 1 0 0 1
pinnumber=8
T 3800 900 5 10 0 0 0 0 1
pinseq=8
}
P 3800 500 3500 500 1 0 0
{
T 3800 500 5 10 0 0 0 0 1
pintype=in
T 3445 495 9 10 1 1 0 7 1
pinlabel=CS
T 3595 545 5 8 1 1 0 0 1
pinnumber=7
T 3800 500 5 10 0 0 0 0 1
pinseq=7
}
P 900 0 900 300 1 0 0
{
T 900 0 5 10 0 0 0 0 1
pintype=pas
T 900 355 9 10 1 1 90 1 1
pinlabel=NC
T 850 205 5 8 1 1 90 6 1
pinnumber=1
T 900 0 5 10 0 0 0 0 1
pinseq=1
}
P 1300 0 1300 300 1 0 0
{
T 1300 0 5 10 0 0 0 0 1
pintype=pas
T 1300 355 9 10 1 1 90 1 1
pinlabel=NC
T 1250 205 5 8 1 1 90 6 1
pinnumber=2
T 1300 0 5 10 0 0 0 0 1
pinseq=2
}
P 1700 0 1700 300 1 0 0
{
T 1700 0 5 10 0 0 0 0 1
pintype=pas
T 1700 355 9 10 1 1 90 1 1
pinlabel=NC
T 1650 205 5 8 1 1 90 6 1
pinnumber=3
T 1700 0 5 10 0 0 0 0 1
pinseq=3
}
P 2100 0 2100 300 1 0 0
{
T 2100 0 5 10 0 0 0 0 1
pintype=pas
T 2100 355 9 10 1 1 90 1 1
pinlabel=NC
T 2050 205 5 8 1 1 90 6 1
pinnumber=4
T 2100 0 5 10 0 0 0 0 1
pinseq=4
}
P 2500 0 2500 300 1 0 0
{
T 2500 0 5 10 0 0 0 0 1
pintype=In
T 2500 355 9 10 1 1 90 1 1
pinlabel=RESET
T 2450 205 5 8 1 1 90 6 1
pinnumber=5
T 2500 0 5 10 0 0 0 0 1
pinseq=5
}
P 2900 0 2900 300 1 0 0
{
T 2900 0 5 10 0 0 0 0 1
pintype=in
T 2900 355 9 10 1 1 90 1 1
pinlabel=MOSI
T 2850 205 5 8 1 1 90 6 1
pinnumber=6
T 2900 0 5 10 0 0 0 0 1
pinseq=6
}
T 2300 1400 8 10 0 1 0 0 1
footprint=rak439
T 1600 1700 8 10 1 1 0 0 1
device=RAK439
T 1800 2000 8 10 1 1 0 0 1
refdes=U?
