v 20130925 2
C 64500 37300 1 0 0 connector10-2.sym
{
T 65200 41800 5 10 1 1 0 6 1
refdes=XS1
T 64800 41750 5 10 0 0 0 0 1
device=CONNECTOR_10
T 64800 41950 5 10 0 0 0 0 1
footprint=SIP10
}
C 64500 52500 1 0 0 connector8-2.sym
{
T 65200 56200 5 10 1 1 0 6 1
refdes=XS3
T 64800 56150 5 10 0 0 0 0 1
device=CONNECTOR_8
T 64800 56350 5 10 0 0 0 0 1
footprint=SIP8
}
C 64500 42100 1 0 0 connector8-2.sym
{
T 65200 45800 5 10 1 1 0 6 1
refdes=XS2
T 64800 45750 5 10 0 0 0 0 1
device=CONNECTOR_8
T 64800 45950 5 10 0 0 0 0 1
footprint=SIP8
}
C 64500 49300 1 0 0 connector6-2.sym
{
T 65200 52200 5 10 1 1 0 6 1
refdes=XS5
T 64800 52150 5 10 0 0 0 0 1
device=CONNECTOR_6
T 64800 52350 5 10 0 0 0 0 1
footprint=HEADER6_2
}
C 64500 46100 1 0 0 connector6-2.sym
{
T 65200 49000 5 10 1 1 0 6 1
refdes=XS4
T 64800 48950 5 10 0 0 0 0 1
device=CONNECTOR_6
T 64800 49150 5 10 0 0 0 0 1
footprint=SIP6
}
C 55500 51900 1 0 0 capacitor-1.sym
{
T 55700 52600 5 10 0 1 0 0 1
device=CAPACITOR
T 55700 52800 5 10 0 1 0 0 1
symversion=0.1
T 55500 51900 5 10 0 1 0 0 1
footprint=0603
T 55500 52200 5 10 1 1 0 0 1
refdes=C10
T 56100 52200 5 10 1 1 0 0 1
value=20
}
C 55500 52600 1 0 0 capacitor-1.sym
{
T 55700 53300 5 10 0 1 0 0 1
device=0.1
T 55700 53500 5 10 0 1 0 0 1
symversion=0.1
T 55500 52600 5 10 0 1 0 0 1
footprint=0603
T 55600 52900 5 10 1 1 0 0 1
refdes=C9
T 56100 52900 5 10 1 1 0 0 1
value=20
}
N 55300 52800 55300 52100 4
N 57100 52500 57100 52800 4
N 57100 52800 56400 52800 4
N 57100 52100 56400 52100 4
N 55500 52800 55300 52800 4
N 55500 52100 55300 52100 4
N 57100 55700 55000 55700 4
{
T 55000 55800 5 10 1 1 0 0 1
netname=\_RST\_
}
C 55000 55700 1 180 0 busripper-1.sym
{
T 55000 55300 5 8 0 0 180 0 1
device=none
}
U 54800 56500 62400 56500 10 0
U 62400 56500 62400 38200 10 -1
C 62200 50500 1 270 0 busripper-1.sym
{
T 62600 50500 5 8 0 0 270 0 1
device=none
T 61700 50600 5 10 1 1 0 0 1
netname=MOSI
}
C 62200 50100 1 270 0 busripper-1.sym
{
T 62600 50100 5 8 0 0 270 0 1
device=none
T 61700 50200 5 10 1 1 0 0 1
netname=MISO
}
C 62200 49700 1 270 0 busripper-1.sym
{
T 62600 49700 5 8 0 0 270 0 1
device=none
T 61800 49800 5 10 1 1 0 0 1
netname=SCK
}
N 61400 49700 62200 49700 4
{
T 61400 49700 5 10 0 1 0 0 1
netname=SCK
}
N 61400 50100 62200 50100 4
{
T 61400 50200 5 10 0 0 0 0 1
netname=MISO
}
N 61400 50500 62200 50500 4
{
T 61400 50600 5 10 0 0 0 0 1
netname=MOSI
}
N 61400 55300 62200 55300 4
{
T 61700 55400 5 10 1 1 0 0 1
netname=PWR
}
C 62200 55300 1 270 0 busripper-1.sym
{
T 62600 55300 5 8 0 0 270 0 1
device=none
}
C 47700 50100 1 0 0 gnd-1.sym
U 54800 56500 54800 42800 10 -1
N 53700 51700 54600 51700 4
{
T 54300 51800 5 10 1 1 0 0 1
netname=Vin
}
C 54600 51700 1 270 0 busripper-1.sym
{
T 55000 51700 5 8 0 0 270 0 1
device=none
}
C 54600 45700 1 270 0 busripper-1.sym
{
T 55000 45700 5 8 0 0 270 0 1
device=none
T 54200 45800 5 10 1 1 0 0 1
netname=SCK1
}
C 54600 46100 1 270 0 busripper-1.sym
{
T 55000 46100 5 8 0 0 270 0 1
device=none
T 54100 46200 5 10 1 1 0 0 1
netname=MOSI1
}
C 54600 45300 1 270 0 busripper-1.sym
{
T 55000 45300 5 8 0 0 270 0 1
device=none
}
C 54600 46500 1 270 0 busripper-1.sym
{
T 55000 46500 5 8 0 0 270 0 1
device=none
T 54100 46600 5 10 1 1 0 0 1
netname=MISO1
}
C 54600 44900 1 270 0 busripper-1.sym
{
T 55000 44900 5 8 0 0 270 0 1
device=none
}
N 53900 45700 54600 45700 4
{
T 48900 45700 5 10 0 1 0 0 1
netname=SCK1
}
N 53900 46100 54600 46100 4
{
T 50200 46100 5 10 0 1 0 0 1
netname=MOSI1
}
N 53900 44500 54600 44500 4
{
T 53900 44600 5 10 1 1 0 0 1
netname=\_WLIRQ\_
}
N 53900 46500 54600 46500 4
{
T 52800 46500 5 10 0 1 0 0 1
netname=MISO1
}
N 53900 45300 54600 45300 4
{
T 54000 45400 5 10 1 1 0 0 1
netname=\_WLRST\_
}
N 57100 46500 55000 46500 4
{
T 55000 46600 5 10 1 1 0 0 1
netname=\_WLIRQ\_
}
C 55000 47300 1 90 1 busripper-1.sym
{
T 54600 47300 5 8 0 0 270 2 1
device=none
}
N 57100 47300 55000 47300 4
{
T 55000 47400 5 10 1 1 0 0 1
netname=\_WLRST\_
}
C 55000 46900 1 90 1 busripper-1.sym
{
T 54600 46900 5 8 0 0 270 2 1
device=none
}
N 57100 46900 55000 46900 4
{
T 55000 47000 5 10 1 1 0 0 1
netname=\_WLCS\_
}
C 55000 46500 1 90 1 busripper-1.sym
{
T 54600 46500 5 8 0 0 270 2 1
device=none
}
C 43200 52600 1 0 0 rf-antenna.sym
{
T 43600 52700 5 10 0 1 0 0 1
device=antenna
T 43200 52600 5 10 0 0 0 0 1
net=GND:1
T 43200 53100 5 10 1 1 0 0 1
refdes=ANT1
T 43200 52600 5 10 0 0 0 0 1
footprint=IFA
}
C 57100 45900 1 0 0 ATmega1284.sym
{
T 57400 54100 5 10 0 0 0 0 1
device=ATmega1284
T 57400 53900 5 10 0 0 0 0 1
footprint=TQFP44_10
T 59400 51550 5 10 1 1 0 6 1
refdes=D1
}
C 55200 51800 1 0 0 gnd-1.sym
C 57200 54400 1 90 0 capacitor-1.sym
{
T 56500 54600 5 10 0 0 90 0 1
device=CAPACITOR
T 56300 54600 5 10 0 0 90 0 1
symversion=0.1
T 57200 54400 5 10 0 1 0 0 1
footprint=0603
T 56900 54400 5 10 1 1 90 0 1
refdes=C14
T 56900 55000 5 10 1 1 90 0 1
value=0.1 uF
}
N 57100 55300 57000 55300 4
C 56900 54100 1 0 0 gnd-1.sym
N 57100 48500 55000 48500 4
{
T 57100 48500 5 10 0 1 0 0 1
netname=MISO1
}
C 55000 48500 1 180 0 busripper-1.sym
{
T 55000 48100 5 8 0 0 180 0 1
device=none
T 55000 48600 5 10 1 1 0 0 1
netname=MISO1
}
N 57100 47700 55000 47700 4
{
T 57100 47700 5 10 0 1 0 0 1
netname=SCK1
}
C 55000 47700 1 180 0 busripper-1.sym
{
T 55000 47300 5 8 0 0 180 0 1
device=none
T 55000 47800 5 10 1 1 0 0 1
netname=SCK1
}
N 57100 48100 55000 48100 4
{
T 57100 48100 5 10 0 1 0 0 1
netname=MOSI1
}
C 55000 48100 1 180 0 busripper-1.sym
{
T 55000 47700 5 8 0 0 180 0 1
device=none
T 55000 48200 5 10 1 1 0 0 1
netname=MOSI1
}
N 45900 51700 48500 51700 4
N 48500 51400 48500 53000 4
C 42100 48800 1 0 0 rak439.sym
{
T 44400 50200 5 10 0 1 0 0 1
footprint=rak439
T 43700 50500 5 10 1 1 0 0 1
device=RAK439
T 43900 50800 5 10 1 1 0 0 1
refdes=U1
}
C 48700 50500 1 90 0 capacitor-1.sym
{
T 48000 50700 5 10 0 0 90 0 1
device=CAPACITOR
T 47800 50700 5 10 0 0 90 0 1
symversion=0.1
T 48700 50500 5 10 0 0 0 0 1
footprint=0603
T 48300 50500 5 10 1 1 90 0 1
refdes=C3
T 48300 51100 5 10 1 1 90 0 1
value=0.1 uF
}
C 48000 50400 1 90 0 capacitor-1.sym
{
T 47300 50600 5 10 0 0 90 0 1
device=CAPACITOR
T 47100 50600 5 10 0 0 90 0 1
symversion=0.1
T 48000 50400 5 10 0 1 0 0 1
footprint=0603
T 47500 50400 5 10 1 1 90 0 1
refdes=C1
T 47500 50800 5 10 1 1 90 0 1
value=10 uF
}
N 45900 51300 47800 51300 4
N 53900 44900 54600 44900 4
{
T 54000 45000 5 10 1 1 0 0 1
netname=\_WLCS\_
}
C 54600 44500 1 270 0 busripper-1.sym
{
T 55000 44500 5 8 0 0 270 0 1
device=none
}
N 45900 50900 47200 50900 4
N 46400 50100 45900 50100 4
N 46800 50500 45900 50500 4
N 45000 46100 45000 48800 4
C 41800 50800 1 270 0 gnd-1.sym
C 43900 52900 1 180 0 gnd-1.sym
C 41900 52700 1 0 0 resistor-2.sym
{
T 42300 53050 5 10 0 0 0 0 1
device=RESISTOR
T 41900 52700 5 10 0 1 0 0 1
footprint=0603
T 42200 53000 5 10 1 1 0 0 1
refdes=R1
T 42200 52500 5 10 1 1 0 0 1
value=10K
}
N 42800 52800 43000 52800 4
N 43000 52800 43000 52600 4
C 41600 52300 1 0 0 gnd-1.sym
N 41900 52800 41700 52800 4
N 41700 52800 41700 52600 4
C 51500 43600 1 0 0 TXB0108RGYR.sym
{
T 52400 44900 5 10 0 1 0 0 1
footprint=RGY20
T 52600 46500 5 10 1 1 0 0 1
refdes=U2
T 52300 45800 5 10 1 1 0 0 1
device=TXB0108
}
N 53000 48100 53000 47800 4
N 53000 48100 54600 48100 4
{
T 54100 48100 5 10 0 1 0 0 1
netname=Vcc
}
C 54600 48100 1 270 0 busripper-1.sym
{
T 55000 48100 5 8 0 0 270 0 1
device=none
T 54300 48200 5 10 1 1 0 0 1
netname=Vcc
}
C 54600 48500 1 270 0 busripper-1.sym
{
T 55000 48500 5 8 0 0 270 0 1
device=none
T 54300 48600 5 10 1 1 0 0 1
netname=V3V
}
N 52400 48500 54600 48500 4
{
T 52400 48500 5 10 0 1 0 0 1
netname=V3V
}
N 52400 47800 52400 48500 4
N 51500 47300 51500 47900 4
C 51500 48300 1 0 0 capacitor-1.sym
{
T 51700 49000 5 10 0 0 0 0 1
device=CAPACITOR
T 51700 49200 5 10 0 0 0 0 1
symversion=0.1
T 51500 48300 5 10 0 1 0 0 1
footprint=0603
T 51600 48700 5 10 1 1 0 0 1
refdes=C2
T 52200 48700 5 10 1 1 0 0 1
value=0.1 uF
}
C 51200 48600 1 270 0 gnd-1.sym
C 52600 43200 1 0 0 gnd-1.sym
N 51500 47900 52400 47900 4
N 47200 50900 47200 45700 4
N 47200 45700 51500 45700 4
N 46800 50500 46800 46500 4
N 46800 46500 51500 46500 4
N 46400 50100 46400 44500 4
N 46400 44500 51500 44500 4
N 44600 45300 51500 45300 4
N 45000 46100 51500 46100 4
N 51400 43500 54000 43500 4
N 48500 53000 54600 53000 4
{
T 54200 53100 5 10 1 1 0 0 1
netname=V3V
}
C 54600 53000 1 270 0 busripper-1.sym
{
T 55000 53000 5 8 0 0 270 0 1
device=none
}
N 51500 44100 51400 44100 4
N 52700 43600 52700 43500 4
N 51400 44100 51400 43500 4
N 54000 43500 54000 44100 4
N 54000 44100 53900 44100 4
C 54400 46800 1 90 0 gnd-1.sym
C 51200 47000 1 270 0 gnd-1.sym
N 44600 45300 44600 48800 4
N 51500 44900 45900 44900 4
N 45900 44900 45900 49300 4
N 53600 54900 54600 54900 4
{
T 54100 55000 5 10 1 1 0 0 1
netname=MISO
}
C 54600 54900 1 270 0 busripper-1.sym
{
T 55000 54900 5 8 0 0 270 0 1
device=none
}
N 53400 53700 54600 53700 4
{
T 54200 53800 5 10 1 1 0 0 1
netname=\_RST\_
}
C 54600 53700 1 270 0 busripper-1.sym
{
T 55000 53700 5 8 0 0 270 0 1
device=none
}
N 53600 55300 54600 55300 4
{
T 54200 55400 5 10 1 1 0 0 1
netname=SCK
}
C 54600 55300 1 270 0 busripper-1.sym
{
T 55000 55300 5 8 0 0 270 0 1
device=none
}
C 54600 54500 1 270 0 busripper-1.sym
{
T 55000 54500 5 8 0 0 270 0 1
device=none
}
N 53600 54500 54600 54500 4
{
T 54100 54600 5 10 1 1 0 0 1
netname=MOSI
}
C 54600 55700 1 180 1 busripper-1.sym
{
T 54600 55300 5 8 0 0 180 6 1
device=none
}
C 53600 54300 1 0 1 header6-2.sym
{
T 53600 55500 5 10 0 1 0 6 1
device=HEADER8
T 53600 54300 5 10 0 0 0 0 1
footprint=HDR_50_6_M.fp
T 53100 55800 5 10 1 1 0 6 1
refdes=XS6
}
C 52100 54200 1 0 0 gnd-1.sym
N 52200 55300 52200 55700 4
N 52200 54900 51800 54900 4
N 51800 54900 51800 53700 4
N 52200 55700 54600 55700 4
{
T 54200 55800 5 10 1 1 0 0 1
netname=Vcc
}
C 55000 49300 1 90 1 busripper-1.sym
{
T 54600 49300 5 8 0 0 270 2 1
device=none
T 55000 49400 5 10 1 1 0 0 1
netname=RXD
}
C 55000 48900 1 90 1 busripper-1.sym
{
T 54600 48900 5 8 0 0 270 2 1
device=none
T 55000 49000 5 10 1 1 0 0 1
netname=TXD
}
N 57100 48900 55000 48900 4
{
T 57100 48900 5 10 0 1 0 6 1
netname=TXD
}
N 57100 49300 55000 49300 4
{
T 57100 49300 5 10 0 1 0 6 1
netname=RXD
}
N 61400 50900 62200 50900 4
{
T 61900 51000 5 10 1 1 0 0 1
netname=\_SS\_
}
C 62200 50900 1 270 0 busripper-1.sym
{
T 62600 50900 5 8 0 0 270 0 1
device=none
}
N 61400 55700 62200 55700 4
{
T 61700 55800 5 10 1 1 0 0 1
netname=STAT
}
C 62200 55700 1 270 0 busripper-1.sym
{
T 62600 55700 5 8 0 0 270 0 1
device=none
}
N 61400 54900 62200 54900 4
{
T 61800 55000 5 10 1 1 0 0 1
netname=ACT
}
C 62200 54900 1 270 0 busripper-1.sym
{
T 62600 54900 5 8 0 0 270 0 1
device=none
}
N 62200 38900 61500 38900 4
{
T 59900 38900 5 10 0 1 0 6 1
netname=RXD
}
C 62200 38900 1 180 1 busripper-1.sym
{
T 62200 38500 5 8 0 0 180 6 1
device=none
T 62200 39000 5 10 1 1 0 6 1
netname=RXD
}
N 62200 38500 61500 38500 4
{
T 59900 38500 5 10 0 1 0 6 1
netname=TXD
}
C 62200 38500 1 180 1 busripper-1.sym
{
T 62200 38100 5 8 0 0 180 6 1
device=none
T 62200 38600 5 10 1 1 0 6 1
netname=TXD
}
C 61800 38200 1 90 1 gnd-1.sym
C 55500 51100 1 0 0 capacitor-1.sym
{
T 55700 51800 5 10 0 0 0 0 1
device=CAPACITOR
T 55700 52000 5 10 0 0 0 0 1
symversion=0.1
T 55500 51100 5 10 0 1 270 0 1
footprint=0603
T 55500 51500 5 10 1 1 0 0 1
refdes=C11
T 56100 51500 5 10 1 1 0 0 1
value=0.1 uF
}
C 55500 50400 1 0 0 capacitor-1.sym
{
T 55700 51100 5 10 0 0 0 0 1
device=CAPACITOR
T 55700 51300 5 10 0 0 0 0 1
symversion=0.1
T 55500 50400 5 10 0 1 270 0 1
footprint=0603
T 55500 50800 5 10 1 1 0 0 1
refdes=C12
T 56100 50800 5 10 1 1 0 0 1
value=0.1 uF
}
C 55500 49700 1 0 0 capacitor-1.sym
{
T 55700 50400 5 10 0 0 0 0 1
device=CAPACITOR
T 55700 50600 5 10 0 0 0 0 1
symversion=0.1
T 55500 49700 5 10 0 1 270 0 1
footprint=0603
T 55500 50100 5 10 1 1 0 0 1
refdes=C13
T 56100 50100 5 10 1 1 0 0 1
value=0.1 uF
}
C 55500 53300 1 0 0 capacitor-1.sym
{
T 55700 54000 5 10 0 0 0 0 1
device=CAPACITOR
T 55700 54200 5 10 0 0 0 0 1
symversion=0.1
T 55500 53300 5 10 0 1 270 0 1
footprint=0603
T 55600 53700 5 10 1 1 0 0 1
refdes=C8
T 56100 53700 5 10 1 1 0 0 1
value=0.1 uF
}
N 55500 53500 55000 53500 4
{
T 55000 53600 5 10 1 1 0 0 1
netname=Vcc
}
C 55000 53500 1 180 0 busripper-1.sym
{
T 55000 53100 5 8 0 0 180 0 1
device=none
}
N 55500 51300 55000 51300 4
{
T 55000 51400 5 10 1 1 0 0 1
netname=Vcc
}
C 55000 51300 1 180 0 busripper-1.sym
{
T 55000 50900 5 8 0 0 180 0 1
device=none
}
N 55500 50600 55000 50600 4
{
T 55000 50700 5 10 1 1 0 0 1
netname=Vcc
}
C 55000 50600 1 180 0 busripper-1.sym
{
T 55000 50200 5 8 0 0 180 0 1
device=none
}
N 55500 49900 55000 49900 4
{
T 55000 50000 5 10 1 1 0 0 1
netname=Vcc
}
C 55000 49900 1 180 0 busripper-1.sym
{
T 55000 49500 5 8 0 0 180 0 1
device=none
}
C 56700 53400 1 90 0 gnd-1.sym
C 56700 51200 1 90 0 gnd-1.sym
C 56700 50500 1 90 0 gnd-1.sym
C 56700 49800 1 90 0 gnd-1.sym
C 61500 37700 1 0 1 connector3-2.sym
{
T 60800 39400 5 10 1 1 0 0 1
refdes=XS7
T 61200 39350 5 10 0 0 0 6 1
device=CONNECTOR_3
T 61200 39550 5 10 0 0 0 6 1
footprint=SIP3
}
C 53400 53500 1 0 1 diode-1.sym
{
T 53000 54100 5 10 0 0 0 6 1
device=DIODE
T 53100 54000 5 10 1 1 0 6 1
refdes=VD1
T 53400 53500 5 10 0 0 0 6 1
footprint=SOD323-2
}
N 52500 53700 51800 53700 4
C 62900 54700 1 0 0 diode-1.sym
{
T 63300 55300 5 10 0 0 0 0 1
device=DIODE
T 63200 55200 5 10 1 1 0 0 1
refdes=VD7
T 62900 54700 5 10 0 0 0 0 1
footprint=SOD323-2
}
N 63800 54900 64500 54900 4
N 62900 54900 62600 54900 4
{
T 62600 55000 5 10 1 1 0 0 1
netname=\_RST\_
}
C 62600 54900 1 180 0 busripper-1.sym
{
T 62600 54500 5 8 0 0 180 0 1
device=none
}
N 64000 54900 64000 50100 4
N 64000 50100 64500 50100 4
C 63000 55700 1 0 0 switch-spst-1.sym
{
T 63400 56400 5 10 0 0 0 0 1
device=SPST
T 63300 56000 5 10 1 1 0 0 1
refdes=S1
T 63000 55700 5 10 0 0 0 0 1
footprint=BUTTON
}
N 63800 55700 64000 55700 4
N 64000 55700 64000 54900 4
C 62700 55800 1 270 0 gnd-1.sym
N 64500 54100 62600 54100 4
{
T 62600 54200 5 10 1 1 0 0 1
netname=Vcc
}
C 62600 54100 1 180 0 busripper-1.sym
{
T 62600 53700 5 8 0 0 180 0 1
device=none
}
C 64200 53400 1 270 0 gnd-1.sym
C 64200 53800 1 270 0 gnd-1.sym
C 63500 53000 1 90 0 diode-3.sym
{
T 62950 53450 5 10 0 0 90 0 1
device=DIODE
T 63050 53350 5 10 1 1 90 0 1
refdes=VD6
T 63500 53000 5 10 0 0 0 0 1
footprint=SOD123
}
N 63300 54100 63300 53900 4
N 64500 52900 62600 52900 4
{
T 62600 53000 5 10 1 1 0 0 1
netname=Vin
}
C 62600 52900 1 180 0 busripper-1.sym
{
T 62600 52500 5 8 0 0 180 0 1
device=none
}
N 63300 52900 63300 53000 4
N 64500 51700 62600 51700 4
{
T 62600 51800 5 10 1 1 0 0 1
netname=MISO
}
C 62600 51700 1 180 0 busripper-1.sym
{
T 62600 51300 5 8 0 0 180 0 1
device=none
}
N 64500 51300 62600 51300 4
{
T 62600 51400 5 10 1 1 0 0 1
netname=Vcc
}
C 62600 51300 1 180 0 busripper-1.sym
{
T 62600 50900 5 8 0 0 180 0 1
device=none
}
N 64500 50900 62600 50900 4
{
T 62600 51000 5 10 1 1 0 0 1
netname=SCK
}
C 62600 50900 1 180 0 busripper-1.sym
{
T 62600 50500 5 8 0 0 180 0 1
device=none
}
N 64500 50500 62600 50500 4
{
T 62600 50600 5 10 1 1 0 0 1
netname=MOSI
}
C 62600 50500 1 180 0 busripper-1.sym
{
T 62600 50100 5 8 0 0 180 0 1
device=none
}
C 64200 49200 1 0 0 gnd-1.sym
N 64500 49700 64300 49700 4
N 64300 49700 64300 49500 4
C 62900 46300 1 0 0 diode-1.sym
{
T 63300 46900 5 10 0 0 0 0 1
device=DIODE
T 63200 46800 5 10 1 1 0 0 1
refdes=VD8
T 62900 46300 5 10 0 0 0 0 1
footprint=SOD323-2
}
N 63800 46500 64500 46500 4
N 62900 46500 62600 46500 4
{
T 62600 46600 5 10 1 1 0 0 1
netname=\_RST\_
}
C 62600 46500 1 180 0 busripper-1.sym
{
T 62600 46100 5 8 0 0 180 0 1
device=none
}
N 61400 52500 62200 52500 4
{
T 61900 52600 5 10 1 1 0 0 1
netname=\_INT\_
}
C 62200 52500 1 270 0 busripper-1.sym
{
T 62600 52500 5 8 0 0 270 0 1
device=none
}
N 64500 42500 62600 42500 4
{
T 62600 42600 5 10 1 1 0 0 1
netname=\_INT\_
}
C 62600 42500 1 180 0 busripper-1.sym
{
T 62600 42100 5 8 0 0 180 0 1
device=none
}
N 64500 40500 62600 40500 4
{
T 62600 40600 5 10 1 1 0 0 1
netname=\_SS\_
}
C 62600 40500 1 180 0 busripper-1.sym
{
T 62600 40100 5 8 0 0 180 0 1
device=none
}
N 64500 40900 62600 40900 4
{
T 62600 41000 5 10 1 1 0 0 1
netname=YELLOW
}
C 62600 40900 1 180 0 busripper-1.sym
{
T 62600 40500 5 8 0 0 180 0 1
device=none
}
C 60400 44300 1 0 1 IRLML2030.sym
{
T 59800 44500 5 10 0 1 0 6 1
device=IRLML2030
T 59800 44800 5 10 0 0 0 6 1
footprint=SOT23
T 60700 44700 5 10 1 1 0 6 1
refdes=VT1
}
C 60700 43400 1 90 0 resistor-2.sym
{
T 60350 43800 5 10 0 0 90 0 1
device=RESISTOR
T 60400 43700 5 10 1 1 90 0 1
refdes=R2
T 60900 43700 5 10 1 1 90 0 1
value=47K
T 60700 43400 5 10 0 1 0 0 1
footprint=0603
}
N 60400 44500 62200 44500 4
{
T 61400 44600 5 10 1 1 0 0 1
netname=YELLOW
}
N 60600 44500 60600 44300 4
C 59800 44000 1 0 0 gnd-1.sym
C 60500 43100 1 0 0 gnd-1.sym
C 60000 45100 1 0 0 led-4.sym
{
T 60950 45750 5 10 0 0 0 0 1
device=LED
T 60300 45800 5 10 1 1 0 0 1
refdes=VD2
T 60000 45100 5 10 0 1 0 0 1
footprint=0805
}
C 60900 45200 1 0 0 resistor-2.sym
{
T 61300 45550 5 10 0 0 0 0 1
device=RESISTOR
T 61200 45500 5 10 1 1 0 0 1
refdes=R3
T 60900 45200 5 10 0 1 0 0 1
footprint=0603
T 61200 45000 5 10 1 1 0 0 1
value=1K
}
N 59900 45100 59900 45300 4
N 59900 45300 60000 45300 4
N 61800 45300 62200 45300 4
{
T 61900 45400 5 10 1 1 0 0 1
netname=Vcc
}
C 62200 45300 1 270 0 busripper-1.sym
{
T 62600 45300 5 8 0 0 270 0 1
device=none
}
C 62200 44500 1 270 0 busripper-1.sym
{
T 62600 44500 5 8 0 0 270 0 1
device=none
}
C 60000 42100 1 0 0 led-4.sym
{
T 60950 42750 5 10 0 0 0 0 1
device=LED
T 60300 42800 5 10 1 1 0 0 1
refdes=VD3
T 60000 42100 5 10 0 1 0 0 1
footprint=0805
}
C 60900 42200 1 0 0 resistor-2.sym
{
T 61300 42550 5 10 0 0 0 0 1
device=RESISTOR
T 61200 42500 5 10 1 1 0 0 1
refdes=R4
T 60900 42200 5 10 0 1 0 0 1
footprint=0603
T 61200 42000 5 10 1 1 0 0 1
value=1K
}
N 61800 41300 62200 41300 4
{
T 61900 41400 5 10 1 1 0 0 1
netname=PWR
}
C 62200 41300 1 270 0 busripper-1.sym
{
T 62600 41300 5 8 0 0 270 0 1
device=none
}
C 60000 41100 1 0 0 led-4.sym
{
T 60950 41750 5 10 0 0 0 0 1
device=LED
T 60300 41800 5 10 1 1 0 0 1
refdes=VD4
T 60000 41100 5 10 0 1 0 0 1
footprint=0805
}
C 60900 41200 1 0 0 resistor-2.sym
{
T 61300 41550 5 10 0 0 0 0 1
device=RESISTOR
T 61200 41500 5 10 1 1 0 0 1
refdes=R5
T 60900 41200 5 10 0 1 0 0 1
footprint=0603
T 61200 41000 5 10 1 1 0 0 1
value=1K
}
N 61800 42300 62200 42300 4
{
T 61800 42400 5 10 1 1 0 0 1
netname=STAT
}
C 62200 42300 1 270 0 busripper-1.sym
{
T 62600 42300 5 8 0 0 270 0 1
device=none
}
C 60000 40100 1 0 0 led-4.sym
{
T 60950 40750 5 10 0 0 0 0 1
device=LED
T 60300 40800 5 10 1 1 0 0 1
refdes=VD5
T 60000 40100 5 10 0 1 0 0 1
footprint=0805
}
C 60900 40200 1 0 0 resistor-2.sym
{
T 61300 40550 5 10 0 0 0 0 1
device=RESISTOR
T 61200 40500 5 10 1 1 0 0 1
refdes=R6
T 60900 40200 5 10 0 1 0 0 1
footprint=0603
T 61200 40000 5 10 1 1 0 0 1
value=1K
}
N 61800 40300 62200 40300 4
{
T 61900 40400 5 10 1 1 0 0 1
netname=ACT
}
C 62200 40300 1 270 0 busripper-1.sym
{
T 62600 40300 5 8 0 0 270 0 1
device=none
}
N 60000 42300 59800 42300 4
N 59800 42300 59800 40300 4
N 59800 40300 60000 40300 4
N 60000 41300 59800 41300 4
C 59700 40000 1 0 0 gnd-1.sym
C 54200 47100 1 90 0 capacitor-1.sym
{
T 53500 47300 5 10 0 0 90 0 1
device=CAPACITOR
T 53300 47300 5 10 0 0 90 0 1
symversion=0.1
T 54200 47100 5 10 0 1 0 0 1
footprint=0603
T 54300 47100 5 10 1 1 90 0 1
refdes=C6
T 54400 47500 5 10 1 1 90 0 1
value=0.1 uF
}
N 54100 46900 53900 46900 4
N 54000 47100 54000 46900 4
N 54000 48000 54000 48100 4
C 55000 54200 1 180 0 busripper-1.sym
{
T 55000 53800 5 8 0 0 180 0 1
device=none
}
N 55500 54200 55000 54200 4
{
T 55000 54300 5 10 1 1 0 0 1
netname=Vcc
}
C 56700 54100 1 90 0 gnd-1.sym
C 55500 54000 1 0 0 capacitor-2.sym
{
T 55700 54700 5 10 0 0 0 0 1
device=POLARIZED_CAPACITOR
T 55500 54500 5 10 1 1 0 0 1
refdes=C7
T 55700 54900 5 10 0 0 0 0 1
symversion=0.1
T 55500 54000 5 10 0 1 0 0 1
footprint=TANT_A
T 56000 54500 5 10 1 1 0 0 1
value=22 uF
}
C 53600 55700 1 0 0 vcc-1.sym
{
T 54050 55900 5 10 0 0 0 0 1
net=AVcc:1
}
C 56500 52800 1 270 0 crystal-3225.sym
{
T 57000 52600 5 10 0 0 270 0 1
device=CRYSTAL
T 56800 52400 5 10 1 1 0 0 1
refdes=G1
T 57200 52600 5 10 0 0 270 0 1
symversion=0.1
T 56300 51800 5 10 1 1 0 0 1
value=20MHz
T 56500 52800 5 10 0 0 0 0 1
footprint=OSC3225
}
C 53700 49800 1 0 1 ST1S10.sym
{
T 53400 52200 5 10 0 1 0 6 1
footprint=powerSO8
T 52900 51100 5 10 1 1 0 6 1
device=ST1S10
T 52100 52200 5 10 1 1 0 6 1
refdes=U3
}
C 54000 50800 1 270 1 capacitor-1.sym
{
T 54700 51000 5 10 0 0 90 2 1
device=CAPACITOR
T 54900 51000 5 10 0 0 90 2 1
symversion=0.1
T 54000 50800 5 10 0 1 0 6 1
footprint=1206
T 53800 51100 5 10 1 1 90 2 1
refdes=C16
T 54500 51000 5 10 1 1 90 2 1
value=22 uF
}
C 53500 49200 1 270 1 capacitor-1.sym
{
T 54200 49400 5 10 0 0 90 2 1
device=CAPACITOR
T 54400 49400 5 10 0 0 90 2 1
symversion=0.1
T 53500 49200 5 10 0 1 0 6 1
footprint=0805
T 53300 49500 5 10 1 1 90 2 1
refdes=C15
T 54000 49400 5 10 1 1 90 2 1
value=4.7 uF
}
C 54300 50500 1 0 1 gnd-1.sym
N 53700 50100 53700 51700 4
C 53800 48900 1 0 1 gnd-1.sym
N 53000 49800 52200 49800 4
C 52700 49500 1 0 1 gnd-1.sym
C 51500 51600 1 0 1 inductor-1.sym
{
T 51300 52100 5 10 0 0 0 6 1
device=INDUCTOR
T 51300 52300 5 10 0 0 0 6 1
symversion=0.1
T 51500 51600 5 10 0 1 0 6 1
footprint=CDRH5D28R
T 51100 51900 5 10 1 1 0 6 1
refdes=L1
T 51300 51500 5 10 1 1 0 6 1
value=4,7 uH
}
C 50500 50700 1 270 1 resistor-2.sym
{
T 50850 51100 5 10 0 0 90 2 1
device=RESISTOR
T 50500 50700 5 10 0 1 0 6 1
footprint=0603
T 50800 50600 5 10 1 1 90 2 1
refdes=R8
T 50800 51000 5 10 1 1 90 2 1
value=47K
}
C 50500 49400 1 270 1 resistor-2.sym
{
T 50850 49800 5 10 0 0 90 2 1
device=RESISTOR
T 50500 49400 5 10 0 1 0 6 1
footprint=0603
T 50200 49700 5 10 1 1 90 2 1
refdes=R7
T 50800 49600 5 10 1 1 90 2 1
value=15K
}
N 50600 51600 50600 51700 4
N 51500 50500 50600 50500 4
N 50600 50300 50600 50700 4
C 50700 49100 1 0 1 gnd-1.sym
C 49700 50700 1 270 1 capacitor-1.sym
{
T 50400 50900 5 10 0 0 90 2 1
device=CAPACITOR
T 50600 50900 5 10 0 0 90 2 1
symversion=0.1
T 49700 50700 5 10 0 0 0 6 1
footprint=0603
T 50100 50600 5 10 1 1 90 2 1
refdes=C5
T 50100 51200 5 10 1 1 90 2 1
value=4700
}
C 48900 50500 1 270 1 capacitor-1.sym
{
T 49600 50700 5 10 0 0 90 2 1
device=CAPACITOR
T 49800 50700 5 10 0 0 90 2 1
symversion=0.1
T 48900 50500 5 10 0 0 0 6 1
footprint=1206
T 49300 50500 5 10 1 1 90 2 1
refdes=C4
T 49400 51000 5 10 1 1 90 2 1
value=22uF
}
N 49100 51700 49100 51400 4
N 49900 51700 49900 51600 4
N 49900 50700 49900 50500 4
N 49900 50500 50600 50500 4
C 49200 50200 1 0 1 gnd-1.sym
N 48500 51700 50600 51700 4
C 48600 50200 1 0 1 gnd-1.sym
